IE_XML_ID;IE_NAME;IE_ID;IE_ACTIVE;IE_ACTIVE_FROM;IE_ACTIVE_TO;IE_PREVIEW_PICTURE;IE_PREVIEW_TEXT;IE_PREVIEW_TEXT_TYPE;IE_DETAIL_PICTURE;IE_DETAIL_TEXT;IE_DETAIL_TEXT_TYPE;IE_CODE;IE_SORT;IE_TAGS;IP_PROP350;IP_PROP349;IC_GROUP0;IC_GROUP1;IC_GROUP2
8;Открытие нового магазина в Перми;2;Y;15.12.2014;;/upload/iblock/0fc/0fc725ed6c68dc088cbe0ec9b4f6032b.JPG;15 декабря состоялось торжественное открытие нового магазина компании Формула Мебели по адресу Шоссе Космонавтов 335, ТЦ Мегацентр, 3 этаж.;html;;"<p>
	Наш новый салон расположен на 3 этаже и ждет своих первых покупателей.
</p>
<p>
	<img alt=""1.JPG"" src=""/upload/medialibrary/f0b/f0bb76c92db4be3a278a093f439210c2.JPG"" title=""1.JPG""><br>
</p>
<p>
	Схема проезда:
</p>
 <a class=""dg-widget-link"" href=""http://2gis.ru/perm/firm/70000001007555500/center/56.13303422927857,57.96010295083041/zoom/16?utm_medium=widget-source&utm_campaign=firmsonmap&utm_source=bigMap"">Посмотреть на карте Перми</a>
<div class=""dg-widget-link"">
	<a href=""http://2gis.ru/perm/center/56.132774,57.958728/zoom/16/routeTab/rsType/bus/to/56.132774,57.958728╎Формула Мебели, магазин?utm_medium=widget-source&utm_campaign=firmsonmap&utm_source=route"">Найти проезд до Формула Мебели, магазин</a>
</div>
<script charset=""utf-8"" src=""http://widgets.2gis.com/js/DGWidgetLoader.js""></script><script charset=""utf-8"">new DGWidgetLoader({""width"":800,""height"":440,""borderColor"":""#a3a3a3"",""pos"":{""lat"":57.96010295083041,""lon"":56.13303422927857,""zoom"":16},""opt"":{""city"":""perm""},""org"":[{""id"":""70000001007555500""}]});</script>";html;exhibition_salon_de_fashion;500;;;;;;
403914;Первомайская демонстрация;403914;Y;01.05.2014;;/upload/iblock/01b/01b5876357709f2a90f7e11603baa69e.jpg;1 мая компания Формула Мебели приняла участие в традиционном первомайском шествии в центральной части города Соликамска.;text;;"<img width=""800"" alt=""2.jpg"" src=""/upload/medialibrary/818/8181ba629cfaf9f04e74c45cfd71e758.jpg"" height=""500"" title=""Первомайское шествие компании Формула Мебели""><br><img width=""800"" alt=""3.jpg"" src=""/upload/medialibrary/a54/a54d426f401d327b5d457495ce60dcec.jpg"" height=""500"" title=""Первомайское шествие компании Формула Мебели""><br>";html;pervomayskaya_demonstratsiya;500;;;;;;
403915;Сотрудничество с фабрикой БТС;403915;Y;01.02.2015;;/upload/iblock/7b9/7b94433f9c996d48036c5e96225487e6.jpg;В феврале этого года мы начали активное сотрудничество с Пензенской мебельной фабрикой БТС. Теперь в наших салонах представлено ещё больше качественной корпусной мебели.;text;;"<p>Компания БТС является одним из крупнейших отечественных производителей мебели эконом класса. Мебель фабрики БТС отличается хорошей ценой при высоком качестве производимой продукции. Корпусная мебель фабрики БТС имеет необходимые сертификаты, подтверждающие безопасность и экологичность используемых в производстве материалов.</p>
<img alt=""9e88109b3b4b4b368e4b04a53877fa20.jpg"" src=""/upload/medialibrary/362/3620948b8a341285683a3834a6e11151.jpg"" title=""9e88109b3b4b4b368e4b04a53877fa20.jpg""><br><i>(фото с сайта&nbsp;</i><a href=""http://btsmebel.ru/""><i>http://btsmebel.ru/</i></a><i>)
<p>Видео презентация фабрики</p>
<iframe src=""https://player.vimeo.com/video/146627913"" width=""800"" height=""500"" frameborder=""0"" webkitallowfullscreen mozallowfullscreen allowfullscreen></iframe></i>";html;sotrudnichestvo_s_fabrikoy_bts;500;;;0;;;
403916;Сотрудничество с фабрикой Гранд Кволити;403916;Y;26.11.2015;;/upload/iblock/ffe/ffebc211cd9313c9686f66077e8af9e1.jpg;В начале осени этого года мы начали активное сотрудничество с новой фабрикой из Пензы Гранд Кволити, которая занимается изготовлением корпусной мебели с 1992 года.;text;;"<p>Компания Гранд Кволити занимается серийным производством корпусной и мягкой мебели. Само производство расположено в Кургане, фабрика оснащена самым современным оборудованием. Компания Гранд Кволити в производстве использует только экологичные материалы прошедшие соответствующую проверку.</p>
<img width=""800"" alt=""rounded_corners.jpg"" src=""/upload/medialibrary/c83/c834e4cec46261c206a22a38671ad32a.jpg"" height=""336"" title=""rounded_corners.jpg""><br><i>(фотография с сайта&nbsp;</i><a href=""http://grandk.ru/""><i>http://grandk.ru/</i></a><i>)</i><br>";html;sotrudnichestvo_s_fabrikoy_grand_kvoliti;500;;;;;;
404644;График работы магазинов в праздничные дни;404644;Y;24.12.2015;;/upload/iblock/200/20073e5c8d441531e68fce5bfb1caac4.jpg;Уважаемые покупатели, настоятельно рекомендуем ознакомится с графиком работы наших магазинов в праздничные дни.;text;;"<table cellspacing=""0"">
	
	
	<tbody><tr>
		<td height=""17"" align=""left"" bgcolor=""#FFFF00"" style=""border-style: solid; border-color: #000000;"">Соликамски филиал</td>
		<td align=""left"" bgcolor=""#FFFF00"" style=""border-style: solid; border-color: #000000;"">График Работы </td>
	</tr>
	<tr>
		<td height=""17"" align=""center"" style=""border-style: solid; border-color: #000000;"">ФМ Орбита</td>
		<td rowspan=""9"" align=""center"" style=""border-style: solid; border-color: #000000;"">1 января – выходной <br>Со 2 января – рабочий день <br>2 и 3 января – сокращеный день до 18 00</td>
	</tr>
	<tr>
		<td height=""17"" align=""center"" style=""border-style: solid; border-color: #000000;"">ФМ Склад-магазин</td>
		</tr>
	<tr>
		<td height=""23"" align=""center"" style=""border-style: solid; border-color: #000000;"">ФМ 5 звезд </td>
		</tr>
	<tr>
		<td height=""24"" align=""center"" style=""border-style: solid; border-color: #000000;"">ФМ Гипер</td>
		</tr>
	<tr>
		<td height=""24"" align=""center"" style=""border-style: solid; border-color: #000000;"">ФМ Магнит</td>
		</tr>
	<tr>
		<td height=""17"" align=""left"" style=""border-style: solid; border-color: #000000;""><br></td>
		</tr>
	<tr>
		<td height=""17"" align=""center"" style=""border-style: solid; border-color: #000000;"">ФМ Кизел </td>
		</tr>
	<tr>
		<td height=""17"" align=""center"" style=""border-style: solid; border-color: #000000;"">ФМ Губаха</td>
		</tr>
	<tr>
		<td height=""17"" align=""center"" style=""border-style: solid; border-color: #000000;"">ФМ Яйва</td>
		</tr>
	<tr>
		<td height=""66"" align=""left"" style=""border-style: solid; border-color: #000000;"">ФМ Мебельер</td>
		<td align=""center"" style=""border-style: solid; border-color: #000000;"">По графику ТЦ <br>31 Декабря с 10-00 до 15-00<br>1,2 Января выходные дни<br>3 Января с 10-00 до 18-00</td>
	</tr>
	<tr>
		<td height=""82"" align=""left"" style=""border-style: solid; border-color: #000000;"">ФМ Оранж-молл</td>
		<td align=""center"" style=""border-style: solid; border-color: #000000;"">по графику ТЦ<br>31.12 с 10 до 19 00<br>1 января выходной <br>2 января с 12 до 21 00<br>3 января с 10 до 20 00</td>
	</tr>
	<tr>
		<td height=""97"" align=""center"" style=""border-style: solid; border-color: #000000;"">ФМ Крепар</td>
		<td align=""center"" style=""border-style: solid; border-color: #000000;"">по графику ТЦ<br>31.12 с 10:00-17:00<br>1.01 выходной<br>2.01 с 10:00-17:00<br>3.01-5.01 с 10:00-18:00<br></td>
	</tr>
	<tr>
		<td height=""17"" align=""center""><br></td>
		<td align=""center""><br></td>
	</tr>
	<tr>
		<td height=""17"" align=""left"" bgcolor=""#FFFF00"" style=""border-style: solid; border-color: #000000;"">Пермский филиал</td>
		<td align=""left"" bgcolor=""#FFFF00"" style=""border-style: solid; border-color: #000000;""><br></td>
	</tr>
	<tr>
		<td height=""66"" align=""left"" style=""border-style: solid; border-color: #000000;"">ФМ Красивый дом</td>
		<td align=""center"" style=""border-style: solid; border-color: #000000;"">По графику ТЦ<br>31.12 - с 9.00 до 16.00<br>01. - 02.01.2015 выходные<br>03.01 - в обычном режиме</td>
	</tr>
	<tr>
		<td height=""82"" align=""left"" style=""border-style: solid; border-color: #000000;"">ФМ Мегацентр </td>
		<td align=""center"" style=""border-style: solid; border-color: #000000;"">По графику ТЦ<br>31.12. - с 10.00 - 17.00<br>01-02.01 - выходные<br>03.01 - в обычном режиме<br></td>
	</tr>
	<tr>
		<td height=""17"" align=""left"" style=""border-style: solid; border-color: #000000;"">ФМ Добрянка</td>
		<td rowspan=""3"" align=""left"" style=""border-style: solid; border-color: #000000;"">1 января – выходной<br>Со 2 января – рабочий день  <br>2 и 3 января – сокращеный день до 18 00</td>
	</tr>
	<tr>
		<td height=""17"" align=""left"" style=""border-style: solid; border-color: #000000;"">ФМ Краснокамск</td>
		</tr>
	<tr>
		<td height=""17"" align=""left"" style=""border-style: solid; border-color: #000000;"">ФМ Кунгур</td>
		</tr>
</tbody></table>";html;grafik_raboty_magazinov_v_prazdnichnye_dni;500;;;;;;
407282;Открытие нового магазина в Чусовом;407282;Y;25.03.2016;;/upload/iblock/dff/dffd61cde5f93941ec39dd8594361808.jpg;"<p>В Чусовом открылся наш новый магазин в ТЦ Сатурн по адресу ул. Мира, 17, 4 этаж.</p>
";html;;"<p>Адрес нового магазина можно посмотреть на нашей карте в разделе <a href=""http://formulamebeli.com/contact-information/chusovoy/"">Адреса магазинов</a>.</p>";html;otkrytie_novogo_magazina_v_chusovom;500;;;0;;;
407382;Новая акция «Доступно всем!»;407382;Y;01.04.2016;;/upload/iblock/eae/eaecffb32f48cb5eb9d0eebd12e7efc3.jpg;Сегодня стартовала новая акция «Доступно всем!» в рамках которой компания Формула Мебели предлагает выгодные цены на корпусную и мягкую мебель.;text;;"<p style=""text-align: left;"">
	 Узнать подробнее об акции и новинках мебели вы можете ознакомиться скачав нашу брошюру. Также листовку вы можете взять в одном из наших магазинов.
</p>
<p style=""text-align: center;"">
 <a title=""dostupno-vsem.pdf"" href=""/upload/medialibrary/86a/86a1d27338e2b361078413366b3331db.pdf""><img alt=""Доступно-всем!.jpg"" src=""/upload/medialibrary/431/431a8243aede3e474ba00aa8ffeae690.jpg"" title=""Акция в Формула Мебели «Доступно-всем!» с 1 апреля по 31 мая.""></a>
</p>
<p style=""text-align: center;"">
	<a title=""dostupno-vsem.pdf"" href=""/upload/medialibrary/86a/86a1d27338e2b361078413366b3331db.pdf"">Скачать</a> (pdf, 13,3Мб)
</p>";html;novaya_aktsiya_dostupno_vsem_;500;;;0;;;
407384;Скидка 20% на продукцию Эко до 31 мая;407384;Y;01.04.2016;;/upload/iblock/f63/f6304825d286146bbfb5d6bfcb63ec87.jpg;Рады сообщить новость, что до 31 мая действует специальная акция на продукцию фабрики Эко.;text;;"До 31 мая действует скидка 20% от базовой цены на <a href=""http://formulamebeli.com/catalog/prikhozhie/prikhozhaya_karina_eko/"">прихожую Карина</a>, <a href=""http://formulamebeli.com/catalog/shkafy/modulnaya_seriya_duet_eko/"">модульная серия Дуэт</a> и все комоды производства фабрики Эко.&nbsp;За подробностями обращайтесь к нам по телефону или в онлайн-чат.<br>";html;skidka_20_na_produktsiyu_eko_do_31_maya;500;;;0;;;
427271;Фотоконкурс «Я люблю Формула Мебели!»;427271;Y;25.04.2016;;/upload/iblock/040/040cb6738a22e669ef8047292ee151f1.jpg;Компания Формула Мебели проводит конкурс на лучшую фотографию с текстом «Я люблю Формула Мебели!».;html;;"Загружайте свои фотографии в альбом для конкурса в нашей <a href=""http://vk.com/formula_mebeli_2016"">группе Вконтакте</a>, голосуйте за свои фотографии, приглашайте друзей и знакомых участвовать в нашем конкурсе.<br>
 <br>
 Голосование будет проходить с 1 по 9 мая.<br>
 <br>
 По итогам голосования мы выберем 3-х победителей которые получат:<br>
 <br>
 <b>1-е место:</b> <a href=""http://formulamebeli.com/catalog/detskie_divany/kreslo_krovat_minony/"">Диван Миньон</a>;<br>
 <br>
 <b>2-е место:</b> 50% скидка на <a href=""http://formulamebeli.com/catalog/detskie_divany/kreslo_krovat_minony/"">Диван Миньон</a>;<br>
 <br>
 <b>3-е место:</b> 50% скидка на <a href=""http://formulamebeli.com/catalog/detskie_divany/kreslo_krovat_minony/"">Диван Миньон</a>.<br>";html;fotokonkurs_ya_lyublyu_formula_mebeli_;500;;;0;;;
427412;Первомайское шествие Формула Мебели в Соликамске;427412;Y;01.05.2016;;/upload/iblock/a31/a31e5770a23d6fa79945aa21e1612601.JPG;В воскресенье 1 мая в Соликамске прошло первомайское шествие в котором по традиции принимала участие мебельная компания Формула Мебели.;text;;"<p style=""text-align: center;"">
	<img width=""560"" alt=""P1040908.JPG"" src=""/upload/medialibrary/01c/01c58dfed9d254700d8812a399437520.JPG"" height=""420"" title=""P1040908.JPG""><br>
	<br>
	<img width=""560"" alt=""P1040918.JPG"" src=""/upload/medialibrary/407/407810d0594f6ccf8917e329c5f2140a.JPG"" height=""420"" title=""P1040918.JPG""><br>
	<br>
	<img width=""560"" alt=""P1040914.JPG"" src=""/upload/medialibrary/cd7/cd7cebccb86e7b7901d1770602ff5651.JPG"" height=""420"" title=""P1040914.JPG"">
</p>";html;pervomayskoe_shestvie_formula_mebeli_v_solikamske;500;;;0;;;
427413;Победители фотоконкурса!;427413;Y;16.05.2016;;/upload/iblock/9d9/9d9751409f39581915eb7100ff52fa35.jpg;"Друзья, прошел фотоконкурс компании Формула Мебели главным призом в котором был диван <a href=""http://formulamebeli.com/catalog/detskie_divany/kreslo_krovat_minony"">Миньон</a>.";html;;"<p>
	 Мы были очень рады вручить призы нашим победителям, примите наши поздравления!
</p>
<p>
	 Следите за нашими новостями, подписывайтесь на нашу группу, дальше ещё больше конкурсов и акций!
</p>
<p>
 <img width=""360"" alt=""3.jpg"" src=""/upload/medialibrary/670/670e141153d6d81701247c96af4ec8ca.jpg"" height=""480"" title=""3.jpg"">&nbsp;<img width=""360"" alt=""2.jpg"" src=""/upload/medialibrary/ca0/ca00ec2fbd9827d6667dd7b79c6f0939.jpg"" height=""480"" title=""2.jpg""><img width=""360"" alt=""1.jpg"" src=""/upload/medialibrary/6c6/6c63e37eada6f1d97b0d2909a8221813.jpg"" height=""480"" title=""1.jpg"">&nbsp;<img width=""360"" alt=""5.jpg"" src=""/upload/medialibrary/55a/55a77c930cb5f83dc66c758cf65bc948.jpg"" height=""480"" title=""5.jpg""><br>
</p>
<p>
 <br>
</p>";html;pobediteli_fotokonkursa;500;;;0;;;
427944;Формула Мебели уравнивает цены!;427944;Y;01.06.2016;;/upload/iblock/07b/07b484e2d2c6d50845858926e6331fe9.jpg;Дорогие покупатели, мы искренне поздравляем вам с наступлением лета и дарим вам новую акцию в которой каждый может получить выгодную скидку на покупку мебели.;html;;"<p>С 1 июня по 31 июля мы проводим акцию «Уравнение цен» в рамках которой вы можете найти массу приятных цен на мебель в наших салонах, а также в нашем интернет-магазине.</p>
<p>Также мы приготовили два мега-сюрприза.</p>
<h2 style=""text-align: center;"">Сюрприз первый: Каждому – свой процент!</h2>
<p style=""text-align: center;"">
<img width=""500"" alt=""1.jpg"" src=""/upload/medialibrary/2e6/2e6d3957c3b6b5f870732472012909dc.jpg"" height=""282"" title=""1.jpg"">
</p>
<p>При покупке мебели в период с 1 июня по 31 июля вы имеете возможность получить выгодную скидку 20, 15 или 10 процентов на следующие позиции:</p>
<p><b>Диваны:</b></p>
<ul>
	<li>диван Олимп</li>
	<li>
	диван Лондон</li>
	<li>
	диван Мюнхен</li>
	<li>
	диван Атланта М</li>
	<li>
	набор Марсель Люкс</li>
</ul>
<p><b>Прихожие:</b></p>
<ul>
	<li>прихожая Стелла</li>
	<li>
	прихожая Карина БТС</li>
</ul>
<p><b>Гостиные:</b></p>
<ul>
	<li>гостиная Дельта</li>
	<li>
	гостиная Каприз</li>
	<li>
	гостиная Даниэлла</li>
	<li>
	гостиная Мечта</li>
	<li>
	гостиная Вера</li>
</ul>
<p><b>Кухня:</b></p>
<ul>
<li>кухня с фотопечатью Кофе</li>
</ul>
<p>Как получить скидку?</p>
<p>Приходите в один из наших магазинов и сыграйте в дартс. Самые меткие имеют возможность получить скидку до 20% на мебель. Подробности узнавайте у наших продавцом консультантов. Успевайте, акция продлится 2 месяца до 31 июля.</p>
<h2 style=""text-align: center;"">Сюрприз второй: Узнай новый слоган компании</h2>
<p style=""text-align: center;"">
	<img width=""500"" alt=""2.jpg"" src=""/upload/medialibrary/af9/af975cb6d01fd7f17fbe430779ea50aa.jpg"" height=""282"" title=""2.jpg"">
</p>
<p>Купите мебель с 1 июня по 20 июля включительно, разгадайте сканворд на последней странице нашего каталога, заполните анкету и участвуйте в лотерее в которой вы можете выиграть до 3000 рублей. Розыгрыш состоится 29 июля 2016 года. Подробности вы можете узнать у продавцов-консультантов в наших магазинах.</p>
<p>Приходите, мы вам рады!</p>";html;formula_mebeli_uravnivaet_tseny;500;;;0;;;
438418;Мегараспродажа в Формула Мебели;438418;Y;27.10.2016;;/upload/iblock/73c/73c951c4e62562720ccbc0f7aae9a82d.png;"С 1 октября по 30 ноября в Формула Мебели проходит акция ""MEGA SALE""! Скидки на диваны, гостиные, кухни, шкафы, матрасы, полотенца, и многое другое - это возможность уже сейчас приобрести качественную мебель по комфортной цене. ";html;;"Осень - это отличное время, чтобы обновить мебель в вашем доме или найти то, что давно хотелось, но откладывалось на потом.<br>
Например, гостиную <a href=""http://formulamebeli.com/catalog/stenki_dlya_gostinoy/gostinaya_samba/"">""Самба""</a> можно купить со скидкой 30% всего за 6 990р., а угловой диван <a href=""http://formulamebeli.com/catalog/uglovye_divany/divan_uglovoy_sochi/"">""Сочи""</a> со скидкой 25% - всего за 17 990р! В каталоге на нашем сайте вы обязательно обнаружите необходимые и приятные предметы интерьера для своего дома, которые можно купить прямо сегодня.<br>
<br>
<img width=""400"" src=""/upload/medialibrary/7b8/7b8a8ca58c9366c5331a2f393f21a500.png"" title=""MEGASALE Formula Mebeli"">";html;mega_sale;500;;;;;;
438457;"Открылись два новых магазина ""Формула Мебели""";438457;Y;14.11.2016;;/upload/iblock/609/609d2658d90e409fc2806c978f3f66da.JPG;"В пятницу, 11 ноября 2016 г. ""Формула Мебели"" открыла целых два новых магазина - еще один в Березниках и первый в Лысьве!";text;;"<h2>г. Березники</h2>
<p>Адрес: ул. Ломоносова, 72, 2 этаж (над магазином «Пятерочка»), <br>т.: 8-951-957-54-75, <br>e-mail: fm.melodiya@formulamebeli.com, <br>режим работы ПН - ВС: 10 - 20<p/><br>
Фото с открытия магазина:<br>
<img width=""400"" src=""/upload/medialibrary/2b3/2b35ecd275b0a80e5f84d34032debe97.JPG"" title=""Formula Mebeli"">
<img width=""400"" src=""/upload/medialibrary/4f5/4f54330c891aa3b42c14dd7371248731.JPG"" title=""Formula Mebeli"">
<img width=""400"" src=""/upload/medialibrary/7ac/7acd5e5cc0d06e59873f222d3646b690.JPG"" title=""Formula Mebeli"">

 <br>
<br>
<h2>г. Лысьва</h2>
<p>Адрес: ТЦ «АЛИСА», ул. Победы, 16, 2 этаж, <br>т.: 8-951-957-39-57, <br>e-mail: fm.lysva@formulamebeli.com, <br>режим работы ПН - ВС: 10 - 20</p><br>
Фото с открытия магазина:<br>
<img width=""400"" src=""/upload/medialibrary/2b8/2b8b66f297bf85c9fcc309c8b7d9aa5f.jpg"" title=""Formula Mebeli"">
<img width=""400"" src=""/upload/medialibrary/755/755cf9123a356c1dce52f42b1638b8a2.jpg"" title=""Formula Mebeli"">
<img width=""400"" src=""/upload/medialibrary/704/7047f9a7c1ca716b10ea591920058642.jpg"" title=""Formula Mebeli"">";html;otkrylis_dva_novykh_magazina_formula_mebeli;500;;;;;;
439342;"Акция ""Дед Мороз рекомендует!""";439342;Y;01.12.2016;;/upload/iblock/1ee/1eed2f337669930e87e93bfda16f68a8.png;"С 1 декабря 2016 г. по 31 января 2017 г. в ""Формула Мебели"" проходит акция ""Дед Мороз рекомендует!""

";text;/upload/iblock/c13/c135ff0823a4c45031cdc602c41fa0c5.png;"Обновить интерьер на Новый год или выбрать подарок - просто! Выбирайте мебель и аксессуары на сайте или в магазинах ""Формула Мебели"" и радуйте себя и своих близких - у нас отличные предложения и по качеству, и по цене! Вам обязательно понравится.";text;aktsiya_ded_moroz_rekomenduet_;500;;;;;;
439966;"Итоги конкурса ""Новогодняя елка с гирляндой за репост""";439966;Y;28.12.2016;;/upload/iblock/e71/e7159cc752a0996c5e26e96d4f5a70c4.png;"27 декабря 2016 г. были подведены итоги конкурса ""Новогодняя елка с гирляндой за репост"".";text;;"<img width=""400"" src=""/upload/medialibrary/655/655d6f13b3bbae49a956161c9dd83b3f.png"" title=""Formula Mebeli"">
<br><br>

Победителя конкурса в нашей <a href=""http://vk.com/formula_mebeli_2016"">группе Вконтакте</a> выбрали случайным образом с помощью приложения - счастливицей стала Елена Ильина из Добрянки, и она уже получила новогоднюю елку и гирлянду от ""Формула Мебели""! Поздравляем с выигрышем!
<br><br>

<img width=""400"" src=""/upload/medialibrary/cbc/cbc53060d110ec395f9f2d23438cca5f.jpg"" title=""Formula Mebeli"">
<br><br>
Следите за новостями и следующими акциями и розыгрышами!
";html;itogi_konkursa_novogodnyaya_elka_s_girlyandoy_za_repost;500;;;;;;
439967;"Режим работы магазинов ""Формула Мебели"" в праздники";439967;Y;28.12.2016;;/upload/iblock/9ea/9ea2f8603730c8435b48208f975e0cea.png;Режим работы «Формула Мебели» в период с 31.12.2016 г. по 09.01.2017 г.;text;;"<strong>Интернет-магазин</strong> принимает заказы без изменений в графике работы.
<br><br><br>
<strong>Пермь</strong>
<br><br>
Пермь, шоссе Космонавтов, 335, <strong>ТЦ Мегацентр</strong><br>
 – 31 декабря с 10.00 до 17.00, 1 и 2 января – выходной, 4 января с 10.00 до 19.00, 5 и 6 января с 10.00 до 20.00, 7 и 8 января с 10.00 до 19.00, 9 января с 10.00 до 20.00 и далее по стандартному режиму работы.
<br><br>
Пермь, шоссе Космонавтов, 114, <strong>ТЦ Космонавт</strong><br>
 – 31 декабря с 10.00 до 18.00, 1,2 января – выходной, 3,4,5,6 января с 10.00 до 20.00, 7 и 8 января с 10.00 до 19.00, 9 января с 10.00 до 20.00 и далее по стандартному режиму работы. 
<br><br>
Пермь, ул.Соликамская, 313а, <strong>ТЦ Красивый дом</strong><br>
 – 31 декабря с 09.00 до 16.00, 1,2 января – выходной, 3,4,5,6 января с 09.00 до 20.00, 7 января с 09.00 до 19.00, 8 января с 10.00 до 19.00, с 9 января по стандартному режиму работы. 
<br><br><br>



<strong>Кунгур</strong>, ул.Свободы, 125, 2 этаж<br>
– 31 декабря с 10.00 до 18.00, 1 января – выходной, 2 января с 10.00 до 18.00, 3,4,5,6 января с 10.00 до 19.00, 7 января с 10.00 до 18.00, с 8 января по стандартному режиму работы.
<br><br>

<strong>Добрянка</strong>, ул. Победы, 43<br>
– 31 декабря с 10.00 до 19.00, 1 января – выходной, 2,3,4,5,6 января с 10.00 до 20.00, 7 января с 10.00 до 19.00, с 8 января по стандартному режиму работы.
<br><br>

<strong>Краснокамск</strong>, пр-т Маяковского, 3, ТЦ Острова<br>

 – 31 декабря с 10.00 до 17.00, 1,2 января – выходной, 3,4,5,6,7 с 10.00 до 17.00, 8 января с 10.00 до 19.00, 9 января с 10.00 до 20.00 и далее по стандартному режиму работы. 
<br><br>
<strong>Чусовой</strong>, ул. Мира, 17 (4 этаж)<br>
 – 31 декабря с 10.00 до 18.00, 1 и 2 января – выходной, 3,4,5,6 января с 10.00 до 20.00, 7 января с 10.00 до 18.00, 8 и 9 января с 10.00 до 20.00 и далее по стандартному режиму работы.
<br><br>
<strong>Лысьва</strong>, пр-т Победы, д. 16 (ТД ""АЛИСА"", 2 этаж) <br>

 – 31 декабря с 10.00 до 18.00, 1  января – выходной, 2,3,4,5,6,7,8 января с 10.00 до 18.00, 9 января  с 10.00 до 18.00 и далее по стандартному режиму работы.
<br><br><br>

<strong>Соликамск</strong>
<br><br>
Соликамск, ул.Всеобуча, 176в, <strong>Гипермаркет</strong><br>
 – 31 декабря с 10.00 до 18.00, 1 января – выходной, 2,3,4,5,6
января с 10.00 до 19.00, 7 января с 10.00 до 18.00, 8 и 9 января с 10.00 до 19.00 и
далее по стандартному режиму работы.
<br><br>
Соликамск, ул.20 лет Победы, 173в, <strong>БЦ Пять Звезд</strong><br>
 - 31 декабря с 10.00 до 17.00, 1 и 2 января – выходной, 3,4,5,6 января с
10.00 до 19.00, 7 января с 10.00 до 18.00, 8 и 9 января с 10.00 до 19.00 и далее по
стандартному режиму работы.
<br><br>
Соликамск, ул.Матросова, 8д, <strong>ТЦ Орбита</strong><br>
 – 31 декабря с 10.00 до 18.00, 1 января – выходной, 2,3,4,5,6 января с
10.00 до 19.00, 7 января с 10.00 до 18.00, 8 и 9 января с 10.00 до 19.00 и далее по
стандартному режиму работы.
<br><br>
Соликамск, ул. Карналлитовая, 70, <strong>Склад-магазин</strong><br>
 - 31 декабря с 10.00 до 18.00, 1 января – выходной, 2,3,4,5,6
января с 10.00 до 19.00, 7 и 8 января с 10.00 до 18.00, 9 января с 10.00 до 19.00 и
далее по стандартному режиму работы.
<br><br><br>



<strong>Березники</strong>
<br><br>
Березники, ТЦ Оранж Молл, ул. Пятилетки, 150, <strong>ТЦ Оранж Молл</strong><br>
 – 31 декабря с 10.00 до 19.00, 1 января – выходной, 2 января с
12.00 до 21.00, 3,4,5,6,7,8,9 января с 10.00 до 21.00 и далее по стандартному
режиму работы.
<br><br>
Березники, ул. Пятилетки, 85б, <strong>ТЦ Мебельер</strong><br>
 - 31 декабря с 10.00 до 15.00, 1,2,3 января – выходной, 4,5,6 января с
10.00 до 20.00, 7 января с 10.00 до 18.00, 8 и 9 января с 10.00 до 20.00 и далее по
стандартному режиму работы.
<br><br>
Березники, пр-т Советский, 20а, <strong>м-н Магнит</strong><br>
 - 31 декабря с 10.00 до 19.00, 1 января – выходной, 2,3,4,5,6 января с
10.00 до 20.00, 7 января с 10.00 до 19.00, 8 и 9 января с 10.00 до 20.00 и далее по
стандартному режиму работы.
<br><br>
г. Березники, <strong>ул. Ломоносова, 72, 2 этаж</strong><br>
 - 31 декабря с 10.00 до 19.00, 1 января – выходной, 2,3,4,5,6 января с
10.00 до 20.00, 7 января с 10.00 до 19.00, 8 и 9 января с 10.00 до 20.00 и далее по
стандартному режиму работы.
<br><br><br>

<strong>Красновишерск</strong>, ул.Дзержинского, 5, ТЦ Крепар<br>
 - 31 декабря с 10.00 до 18.00, 1 января – выходной, 2,3,4,5,6,7,8,9 января
с 10.00 до 19.00 и далее по стандартному режиму работы.
<br><br>
<strong>Яйва</strong>, ул.Заводская, 45<br>
 - 31 декабря с 10.00 до 18.00, 1 января – выходной, 2,3,4,5,6 января с 10.00
до 19.00, 7 января с 10.00 до 18.00, 8 и 9 января с 10.00 до 19.00 и далее по
стандартному режиму работы.
<br><br>
<strong>Кизел</strong>, ул.Энгельса, 86<br>
 - 31 декабря с 10.00 до 18.00, 1 января – выходной, 2,3,4,5,6 января с
10.00 до 19.00, 7 января с 10.00 до 18.00, 8 и 9 января с 10.00 до 19.00 и далее по
стандартному режиму работы.
<br><br>
<strong>Губаха</strong>, ул.Ленина, 34<br>
 - 31 декабря с 10.00 до 18.00, 1 января – выходной, 2,3,4,5,6 января с
10.00 до 19.00, 7 января с 10.00 до 18.00, 8 и 9 января с 10.00 до 19.00 и далее по
стандартному режиму работы.
<br><br>";html;rezhim_raboty_magazinov_formula_mebeli_v_prazdniki;500;;;;;;
440613;Февраль и март - время подарков!;440613;Y;01.02.2017;;/upload/iblock/df1/df109a522b30298746b4432f440197f0.png;"Февраль и март - время множества праздников. Когда хочется выбрать нужный и полезный подарок, приходите в магазины ""Формула Мебели"" и выбирайте - для него, для неё, для семьи, для себя! 
";text;;"<img width=""512"" alt=""Стол обеденный за 990р.png"" src=""/upload/medialibrary/aa5/aa5d5d38b596192047215db72742fcd9.png"" height=""457"" title=""Стол обеденный за 990р.png""><br>
 <br>
С 1 февраля по 31 марта в сети магазинов ""Формула Мебели"" действуют скидки до 45%! Широкий ассортимент, доступные цены, качественная и современная мебель.<br>
<br>
 <img width=""541"" alt=""диван и кухня со скидкой.png"" src=""/upload/medialibrary/4e8/4e83e455df1263b4fc07df53aac93838.png"" height=""614"" title=""диван и кухня со скидкой.png""><br>";html;fevral_i_mart_vremya_podarkov;500;;;;;;
440614;"Конкурс ""Выиграй обеденный стол за репост""";440614;Y;14.02.2017;;/upload/iblock/d43/d437d2a156fb977814d87a8f22caaa9a.png;"Сеть магазинов «Формула Мебели» дарит подарки! 
Участвуйте в конкурсе ""Выиграй обеденный стол за репост""! Победитель получает совершенно бесплатно отличный обеденный стол от компании «Формула Мебели».";text;;"Габариты стола: ширина 90см, высота 75см, глубина 70см.<br>
 <br>
 <img width=""600"" alt=""konkurs formula mebeli do 15 marta.png"" src=""/upload/medialibrary/303/30342dac69f6aec350a660b81c3c7795.png"" height=""592"" title=""konkurs formula mebeli do 15 marta.png""><br>
 <br>
 Условия конкурса:<br>
 1. Вступить в нашу группу: <a href=""https://vk.com/formula_mebeli_2016"">https://vk.com/formula_mebeli_2016</a><br>
 2. Поставить лайк записи с условиями конкурса (Мне нравится)<br>
 3. Сделать репост записи с условиями конкурса (Поделиться с друзьями)<br>
 <br>
 В конкурсе могут принять участие все желающие. Приз можно будет получить в сети магазинов «Формула Мебели».<br>
 <br>
 Победитель среди сделавших репост будет определен случайным образом с помощью приложения. Пользователь должен быть подписан на наше сообщество.<br>
 <br>
 Необходимо сохранить запись до объявления результатов.<br>
Конкурс завершится и выбор победителя состоится 15 марта 2017 года.";html;konkurs_vyigray_obedennyy_stol_za_repost;500;;;;;;
441173;"Итоги конкурса ""Выиграй обеденный стол за репост""";441173;Y;16.03.2017;;/upload/iblock/082/082442ccf799ab545ddcf1ec923e3adb.png;"15 марта были подведены итоги конкурса ""Выиграй обеденный стол за репост""! ";text;;"
<img width=""400"" src=""/upload/medialibrary/303/30342dac69f6aec350a660b81c3c7795.png"" title=""Formula Mebeli""> <br>
<br>
<p>Победитель конкурса был выбран случайным способом с помощью приложения в нашей <a href=""http://vk.com/formula_mebeli_2016"">группе Вконтакте</a> .
На этот раз выиграла девушка из Соликамска - Анастасия Белкина! Обеденный стол от ""Формула Мебели"" достался ей, и победительница была приятно удивлена улыбнувшейся фортуной.</p>
<br>
 <img width=""400"" src=""/upload/medialibrary/e6f/e6f93112fb9ed911381fbe5178bd89ae.png"" title=""Formula Mebeli""> <br>
<br>
<p>Поздравляем Анастасию!</p>

<p>Следите за новостями и следующими акциями и розыгрышами!</p>
";html;itogi_konkursa_vyigray_obedennyy_stol_za_repost;500;;;;;;
441623;"Оптовые цены в ""Формула Мебели""!";441623;Y;01.04.2017;;/upload/iblock/f76/f762666dd3d735acf34fd8a476ea4029.png;"С 1 апреля по 31 мая во всех магазинах ""Формула Мебели"" - акция ""ОПТОВЫЕ ЦЕНЫ""!&nbsp;<br>
 Убедитесь сами!<br>
<br>";html;;"<img width=""724"" alt=""05. Плакат А2.png"" src=""/upload/medialibrary/ef3/ef3243efb833262aa4c9afa90e718eab.png"" height=""1024"" title=""05. Плакат А2.png""><br>
 <br>
Цены снижены еще больше! Удачных покупок!";html;optovye_tseny_v_formula_mebeli_;500;;;;;;
441638;Открытие нового салона в Александровске;441638;Y;12.04.2017;;/upload/iblock/25a/25a3793948ee3986b2500df629292536.JPG;"9 апреля состоялось торжественное открытие 21-го салона ""Формула мебели"", в г. Александровске!&nbsp;";html;;"Мы рады вас приветствовать в новом магазине! Добро пожаловать! Удачных покупок!<br>
 Адрес салона: г. Александровск, ул. Чернышевского, 10.<br>
 Телефон салона: 8-952-65-000-24, e-mail:&nbsp;<a href=""https://vk.com/write?email=aleksandrovsk@formulamebeli.com"" target=""_blank"">aleksandrovsk@formulamebeli.com</a> <br>
 Часы работы: ежедневно с 10 до 19 ч.<br>
 Контакты магазина на сайте:&nbsp;<a href=""https://vk.com/away.php?to=http%3A%2F%2Fformulamebeli.com%2Fcontact-information%2Ffm-aleksandrovsk%2F&post=-103905185_736&cc_key="" target=""_blank"" title=""http://formulamebeli.com/contact-information/fm-aleksandrovsk/"">http://formulamebeli.com/contact-information/fm-aleks..</a><br>
 Теперь цены ниже - мебель ближе для жителей Александровска!<br>
<br>
<img width=""1024"" alt=""IMG_3259.JPG"" src=""/upload/medialibrary/3c8/3c8c55c201e74d889ec464e33c04cf24.JPG"" height=""768"" title=""IMG_3259.JPG""><br>
<br>
<img width=""512"" alt=""IMG_3251.JPG"" src=""/upload/medialibrary/c9f/c9f931ea6d2cb09acf872dce1addd1c4.JPG"" height=""384"" title=""IMG_3251.JPG"">&nbsp; &nbsp; &nbsp; &nbsp;<img width=""288"" alt=""IMG_3247.JPG"" src=""/upload/medialibrary/39e/39e5d093f05df44518688719d263f529.JPG"" height=""384"" title=""IMG_3247.JPG""><br>";html;otkrytie_novogo_salona_v_aleksandrovske;500;;;;;;
441871;Конкурс Подарочный сертификат от сети салонов «Формула Мебели» на 1000р. за репост ;441871;Y;14.04.2017;;/upload/iblock/904/904870e23abf5dccd6acf4078ba7810b.png;"У нас новый конкурс - приза интереснее еще не было! 
Подарочный сертификат от сети салонов «Формула Мебели» на 1000р. за репост ждет своего победителя! Этот подарок подойдет каждому. На сумму сертификата можно приобрести мебель, аксессуары, скидку на эту сумму. Его можно использовать самому или подарить близким!";text;;"Условия конкурса:<br>
 1. Вступить в нашу группу: <a href=""https://vk.com/formula_mebeli_2016"">https://vk.com/formula_mebeli_2016</a><br>
 2. Поставить лайк этой записи (Мне нравится)<br>
 3. Сделать репост этой записи (Поделиться с друзьями)<br>
<br>
 <img width=""600"" alt=""сертификат5.png"" src=""/upload/medialibrary/f10/f1075c7d22ff12b8e1b9ce3e827fc65c.png"" height=""427"" title=""сертификат5.png""><br>
<br>
 В конкурсе могут принять участие все желающие. Сертификат можно будет получить в сети магазинов «Формула Мебели».<br>
 <br>
 Победитель среди сделавших репост будет определен случайным образом с помощью приложения. Пользователь должен быть подписан на наше сообщество.<br>
 <br>
 Необходимо сохранить запись до объявления результатов.<br>
 Конкурс завершится и выбор победителя состоится 17 мая 2017 года.<br>
 <br>
 <br>";html;konkurs_podarochnyy_sertifikat_ot_seti_salonov_formula_mebeli_na_1000r_za_repost_;500;;;;;;
443284;Акция 600 часов низких цен с 1 июня по 31 июля!;443284;Y;01.06.2017;;/upload/iblock/bb7/bb716a21cc91d0a1532b0f92bc295e17.png;"600 часов НИЗКИХ ЦЕН в Формула Мебели с 1 июня по 31 июля! 
 
 Чтобы купить, не надо копить! 
";text;;"&nbsp;Успевайте! Во всех салонах Формула Мебели и в интернет-магазине formulamebeli.com комод всего за 990 рублей!&nbsp;<br>
 Доставим уже завтра!<br>
<br>";html;aktsiya_600_chasov_nizkikh_tsen_s_1_iyunya_po_31_iyulya;500;;;;;;
443285;Открытие салона в Чернушке;443285;Y;05.06.2017;;/upload/iblock/753/753769a3a5a70e8c40501e2bf0dc9e7d.jpg;"Состоялось долгожданное открытие салона ""Формула Мебели"" в г. Чернушке, с бесплатным розыгрышем мебели! 
";text;;"Адрес: Нефтяников, 11 (два этажа мебели!), салон работает ежедневно с 10:00 до 19:00. 
Телефон: 8 (992) 219-32-41, e-mail: chernushka@formulamebeli.com
Добро пожаловать в наш салон!";text;otkrytie_salona_v_chernushke;500;;;;;;
443521;"Акция ""Цены на 5+""";443521;Y;01.08.2017;;/upload/iblock/94c/94c7ba0b3801c99337963742163e93ad.jpg;"Внимание! С 1 августа по 30 сентября во всех салонах ""Формула Мебели"" - акция ""Цены на 5+"". Таких цен еще не было!
Количество товара ограничено.";text;;"Мы решили сделать цены на ОТЛИЧНО к новому учебному году, однако низкие цены установлены не только на мебель для детей (письменный стол всего за 690р., стул за 585р., и многое другое), но и на диваны, гостиные, шкафы, кухни, кровати, прихожие, матрасы. 

Уникальным предложением в этой акции является возможность купить шкаф-купе Амиго всего за 5 490р., данная цена действует при покупке 4-х корзин или журнального стола ""Статус-3"". Обычная цена на шкаф-купе ""Амиго"" - 5 990р.
Аналогично, шкаф-купе ""Комфорт"" можно купить всего за 7 990р., при покупке 4-х корзин или журнального стола ""Статус-3"". Обычная цена на шкаф-купе ""Комфорт"" - 8 400р.

Цены и товарные предложения одинаково действуют как в салонах ""Формула Мебели"", так и в интернет-магазине. 
Желаем вам выгодных покупок!
";text;aktsiya_tseny_na_5_;500;;;;;;
443671;Итоги розыгрыша абонемента в бассейн в Березниках;443671;Y;02.08.2017;;/upload/iblock/159/159db378957da94e36cdfa206e69c2c4.jpg;"1 августа были подведены итоги еще одного розыгрыша от ""Формула Мебели""! В Березниках был разыгран абонемент в бассейн на 10 посещений. 
";text;/upload/iblock/c57/c579c4e78412db08b1ab92a917cb3adb.jpg;"Чтобы его получить, нужно было вырезать купон из газеты ""Березники вечерние"", заполнить его и принести в любой из салонов.
С помощью лототрона мы определили победителя - Ольга Блинова получила долгожданный приз!
Поздравляем! ";text;itogi_rozygrysha_abonementa_v_basseyn_v_bereznikakh;500;;;;;;
443900;Открытие нового салона в Лысьве;443900;Y;07.08.2017;;/upload/iblock/2dd/2dd7d6961e364a25d858c65d7f882b75.jpg;"5 августа открылся новый салон в г. Лысьва, по адресу ул. Кузьмина, 74а. 
Магазин располагается на втором этаже, над магазином ""Пятерочка"", и занимает всю площадь этажа.
";text;;"Это уже 23 салон в Пермском крае, и второй в Лысьве. ""Формула Мебели"" имеет магазины в 14 городах Пермского края и постоянно увеличивает их количество, чтобы как можно больше людей могли покупать мебель по доступным ценам, без переплат.
Добро пожаловать!";text;otkrytie_novogo_salona_v_lysve;500;;;;;;
444033;Новый розыгрыш мебели за репост Вконтакте;444033;Y;15.08.2017;;/upload/iblock/0d1/0d1dcf6529b1665c17fa0be06bfc5041.jpg;"С 15 по 29 августа в официальной группе Вконтакте ""Формула Мебели"" проходит новый розыгрыш за репост!
Приз: письменный стол + стул ""стандарт"".";text;;"Победитель получает совершенно бесплатно письменный стол и стул от сети салонов «Формула Мебели»
Габариты стола: ширина 90 см, высота 75 см, глубина 59 см. 

Условия конкурса: 
1. Вступить в нашу группу: https://vk.com/formulamebeli 
2. Поставить лайк этой записи (Мне нравится) 
3. Сделать репост этой записи (Поделиться с друзьями) 

В конкурсе могут принять участие все желающие. Приз можно будет получить в сети магазинов «Формула Мебели». 

Победитель среди сделавших репост будет определен случайным образом с помощью приложения. Пользователь должен быть подписан на наше сообщество. 

Необходимо сохранить запись до объявления результатов! 
Конкурс завершится и выбор победителя состоится 29 августа 2017 года (вторник).";text;novyy_rozygrysh_mebeli_za_repost_vkontakte;500;;;;;;
448899;Поздравляем с днем знаний!;448899;Y;01.09.2017;;/upload/iblock/5a0/5a055fb5bc0eaa1739b45a826ce0160e.jpg;"Поздравляем наших покупателей с днем знаний! Наша акция ""Цены на 5+"" - это возможность наконец-то приобрести мебель, которую вы давно хотели купить для детей или для себя. Мы стараемся, чтобы у Вас все было ""На отлично!"".";text;; ;text;pozdravlyaem_s_dnem_znaniy;500;;;;;;
448900;Подписывайтесь на нас вконтакте! ;448900;Y;28.09.2017;;/upload/iblock/5ed/5ed5e94ab34053aa7f903c2be637b558.png;"Чтобы не пропустить ничего важного, подписывайтесь на нас Вконтакте!  https://vk.com/formulamebeli
Подборка мебели и аксессуаров по низким ценам, акции, интересные идеи, и конечно же, конкурсы!
Мы уже разыгрывали обеденный стол, набор из туристического стола и стульев, подарочный сертификат, письменный стол со стулом, и многое другое, и собираемся продолжать конкурсы, по вашим многочисленным просьбам.";text;; ;text;podpisyvaytes_na_nas_vkontakte_;500;;;;;;
449171;Акция WOW-ЦЕНЫ!;449171;Y;01.10.2017;;/upload/iblock/7da/7da8560cbb8335c5227bc1c90028c3cc.jpg;С 1 октября по 30 ноября в Формула Мебели - акция WOW-цены! Скидки 15%, 30%, 40%, дешевле уже не будет! ;text;;"Диван-еврокнижка всего за 6 990 рублей, прихожая за 1 590 рублей, гостиная за 2 990 рублей, лучший ассортимент по самым привлекательным ценам. Ждем вас!<br>
<br>
 <iframe title=""WOW ЦЕНЫ в Формула Мебели!"" width=""480"" height=""270"" src=""//www.youtube.com/embed/VqUk5191zTw?feature=oembed"" frameborder=""0"" allowfullscreen="""">
</iframe> <br>
 <br>";html;aktsiya_wow_tseny;500;;;;;;
450769;"Конкурс ""ЦЕЛЫЙ ДИВАН за РЕПОСТ""";450769;Y;31.10.2017;;/upload/iblock/00a/00ab28dabaca2aa54b99916855c9be7c.jpg;"Завершился самый масштабный конкурс за репост в группе Вконтакте ""Формула Мебели"" https://vk.com/formulamebeli
Победительница Дарья из Перми выиграла диван-еврокнижку! Мы хотим искренне поблагодарить всех участников, кто с замиранием сердца ждал результатов конкурса. Для нас это также большое событие!";text;; ;text;konkurs_tselyy_divan_za_repost;500;;;;;;
451382;"Акция ""Новогодний бум!""";451382;Y;01.12.2017;;/upload/iblock/691/691a1dfd2467d0afaac34fbb7e7c1cfb.jpg;"С 1 декабря в ""Формула Мебели"" стартовала акция ""Новогодний бум!""
Акция продлится до 31 января.
Стол-книжка всего за 1590 рублей, и еще множество выгодных цен. Счастливых покупок!";text;; ;text;aktsiya_novogodniy_bum_;500;;;;;;
451874;В декабре были проведены целых 2 конкурса за репост в группе Вконтакте;451874;Y;28.12.2017;;/upload/iblock/e4b/e4be8548f42fada589d44fd60b547725.jpg;"Стол книжку выиграла Ксения (ссылка на пост: https://vk.com/formulamebeli?w=wall-103905185_2745), а елки с гирляндой получили целых 10 победителей нашего конкурса!
Удачи в дальнейших победах, следите за событиями в нашей группе Вконтакте: vk.com/formulamebeli";text;; ;text;v_dekabre_byli_provedeny_tselykh_2_konkursa_za_repost_v_gruppe_vkontakte;500;;;;;;
451875;Режим работы магазинов сети «Формула мебели» в новогодние праздники;451875;Y;28.12.2017;;/upload/iblock/cc1/cc19e0e3836ad931352b36b5ca6880a9.jpg;"Мы работаем в январские праздники!  Приглашаем вас в эти дни прийти к нам за покупками в интернет-магазин и салоны ""Формула Мебели"". Время работы: ";text;;"<b>Интернет-магазин</b><br>
 1, 2 января — выходной<br>
 с 3 января в обычном режиме<br>
 <br>
 <br>
 <b>г. Пермь, Соликамская, 313 а, ТЦ Красивый дом</b><br>
 <br>
 31 декабря — с 9-00 до 16-00<br>
 1,2 января — выходной<br>
 с 3 января в обычном режиме<br>
 <br>
 <b>г. Пермь, Ш. Космонавтов, 114, ТЦ Космонавт</b><br>
 <br>
 31 декабря — с 10-00 до 18-00<br>
 1,2 января — выходной<br>
 с 3 января в обычном режиме<br>
 <br>
 <b>г. Пермь, Ш. Космонавтов, 335, ТЦ Мегацентр</b><br>
 <br>
 31 декабря до 19-00, <b>с 1 января НЕ РАБОТАЕТ</b>, переезжает по адресу : у.Карпинского,91а/2 <br>
 <br>
 <b>г. Пермь, ул. Карпинского, 91а/2, ТЦ Позитив (Гипермаркет Магнит)</b><br>
 <br>
 с 03 января-Техническое открытие<br>
 с 20 января — Официальное открытие<br>
 Работает ежедневно с 10-00 до 20-00<br>
 <br>
 <br>
 <b>ТЦ Острова г. Краснокамск, Маяковского, 3</b><br>
 <br>
 31 декабря — с 10-00 до 17-00<br>
 1,2 января — выходной<br>
 3 января — с 10-00 до 17-00<br>
 4,5 января - с 11-00 до 17-00<br>
 6 января — с 10-00 до 17-00<br>
 7 января — с 11-00 до 17-00<br>
 8 января — с 12-00 до 18-00<br>
 <br>
 <br>
 <b>Добрянка, ул. Победы, 43</b><br>
 <br>
 31 декабря — с 10-00 до 19-00<br>
 1 января — выходной<br>
 со 2 января в обычном режиме<br>
 <br>
 <br>
 <b>Кунгур, ул. Свободы, 125</b><br>
 <br>
 31 декабря — с 10-00 до 18-00<br>
 01 января-выходной<br>
 со 2 января в обычном режиме<br>
 <br>
 <br>
 <b>Чернушка, ул. Нефтяников, 11</b><br>
 <br>
 31 декабря — с10-00 до 18-00<br>
 01 января — выходной<br>
 со 2 января в обычном режиме<br>
 <br>
 <br>
 <b>г. Лысьва, ул. Победы, 16, ТЦ Алиса</b><br>
 <br>
 31 декабря — с 10-00 до 18-00<br>
 1 января-выходной<br>
 со 2 января в обычном режиме<br>
 <br>
 <br>
 <b>г. Лысьва, Кузьмина, 74а</b><br>
 <br>
 31 декабря — с 10-00 до 18-00<br>
 1 января-выходной<br>
 со 2 января в обычном режиме<br>
 <br>
 <br>
 <b>г. Чусовой, ул. Мира, 17, ТЦ Сатурн</b><br>
 <br>
 31 декабря — с 10-00 до 18-00<br>
 1,2 января — выходной<br>
 7 января — с 10-00 до 18-00<br>
 <br>
 <br>
 <b>г. Соликамск, ул. Всеобуча, 176 в, Гипермаркет </b><br>
 <br>
 31 декабря - с 10-00 до 18-00<br>
 1 января — выходной<br>
 2-9 января— с 10-00 до 19-00<br>
 <br>
 <br>
 <b>г. Соликамск, ул. 20 лет победы, ТЦ 5 звезд</b><br>
 <br>
 ТЦ работает 31 декабря с 10.00 до 17.00 <br>
 1, 2 января - выходной<br>
 с 3 января по 8 января с 10.00 до 18.00<br>
 <br>
 <br>
 <b>г. Соликамск, ул. Матросова, 8, цок.эт. ТЦ Орбита</b><br>
 <br>
 31 декабря с 10-00 до 18-00<br>
 1 января — выходной<br>
 2-8 января с 10-00 до 19-00<br>
 с 9 января в обычном режиме<br>
 <br>
 <br>
 <b>г. Соликамск, ул. Карналлитовая, 70 Склад- магазин </b><br>
 <br>
 31 декабря с 10-00 до 18-00<br>
 1 января — выходной<br>
 2 - 6 января с 10-00 до 19-00<br>
 7 - 8 января с 10-00 до 18-00<br>
 <br>
 <br>
 <b>Склад Соликамск, ул. Карналлитовая, 70— в обычном режиме.</b><br>
 <br>
 <br>
 <b>г. Березники, ул. Ломоносова, 72</b><br>
 <br>
 31 декабря — с 10-00 до 19-00<br>
 1 января — выходной<br>
 Со 2-го января — в обычном режиме<br>
 <br>
 <br>
 <b>г. Березники, ул. Пятилетки, 85 б, ТЦ Мебельер</b><br>
 <br>
 31 декабря — с 10-00 до 19-00<br>
 1 января — выходной<br>
 Со 2-го января — в обычном режиме<br>
 <br>
 <br>
 <b>г. Березники, пр-т Советский, 20а, 2 этаж</b><br>
 <br>
 31 декабря — 10.00 — 19.00<br>
 1 января — выходной <br>
 со 2 января в обычном режиме с 10.00 — 20.00<br>
 <br>
 <br>
 <b>г. Березники, ул. Пятилетки, 150, цок. эт., ТЦ Оранж Молл</b><br>
 <br>
 31 декабря до 19.00<br>
 1 января выходной<br>
 2 января с 12.00-21.00<br>
 <br>
 <br>
 <b>г. Александровск, ул. Чернышевского, 10</b><br>
 <br>
 31 декабря с 10.00 - 18.00<br>
 1 января выходной.<br>
 Со 2 января в обычном режиме.<br>
 <br>
 <br>
 <b>г. Кизел, ул. Энгельса, 86</b><br>
 <br>
 31 декабря с 10.00 - 18.00<br>
 1 января выходной.<br>
 Со 2 января в обычном режиме.<br>
 <br>
 <br>
 <b>г. Губаха, ул. Ленина, 34</b><br>
 <br>
 31 декабря с 10.00 - 18.00<br>
 1 января выходной.<br>
 Со 2 января в обычном режим<br>
 <br>
 <br>
 <b>г. Красновишерск, ул. Дзержинского, 5, ТЦ Крепар</b><br>
 <br>
 31 декабря с 10-00 до 18-00<br>
 1 января - выходной<br>
 2-7 января с 10:00-18:00<br>
 С 8 января в обычном режиме<br>
 <br>
 <br>
 <b>г. Яйва, ул. Заводская, 45</b><br>
 <br>
 31 декабря — 10.00 — 18.00<br>
 1 января — выходной<br>
 со 2 января в обычном режиме с 10.00 — 19.00<br>
 <br>
 <br>";html;rezhim_raboty_magazinov_seti_formula_mebeli_v_novogodnie_prazdniki;500;;;;;;
453636;"Акция ""Выгода для всей семьи""";453636;Y;01.02.2018;;/upload/iblock/05f/05f899766bfd10ae68872df2323a8a26.jpg;Последний месяц зимы начинается с крутой акции “Выгода для всей семьи” ;text;;"Первым и главным предметов мебели по сниженной цене стал диван “Веста” из прочного бруса хвойных пород и высококачественного ЛДСП. 

Удобный и просторный ящик для белья тоже есть ☝

Цена: 8 990 рублей";text;aktsiya_vygoda_dlya_vsey_semi;500;;;;;;
453637;"Конкурс ""Самый большой чек"" ";453637;Y;06.02.2018;;/upload/iblock/842/8426757b4e20aefa79a94c18e8bab59e.jpg;"С радостью готовы вам сообщить о запуске фантастического конкурса ""Самый Большой Чек""! Конкурс проходит в каждом салоне ""Формула Мебели"" и в интернет-магазине для покупателей. ✨
";text;;"<p>Если вы совершили покупку и сумма вашего чека больше, чем у других в данной торговой точке за неделю, то вы бесплатно получите двуспальный комплект постельного белья!</p> <br>
<p>А если сумма в вашем чеке окажется самой высокой среди других за месяц, то вашим призом будет шикарное офисное кресло.</p> <br>
<p>Подробнее  <a href=""https://fmaction.bitrix24.site/?utm_source=site&utm_medium=novosti&utm_campaign=konkurs_samiy_bolshoy_chek"">по ссылке!</a></p> ";html;konkurs_samyy_bolshoy_chek_;500;;;;;;
453917;Открытие нового салона в Перми (Закамск);453917;Y;27.02.2018;;/upload/iblock/158/158f820bad75048b8847d468c4d5b700.jpg;"26 февраля 2018 г. был первый официальный рабочий день нового салона ""Формула Мебели"" в Закамске. Магазин легко найти, он находится прямо за ТЦ Строймастер на остановке Ласьвинская, в двухэтажном здании, где занимает весь второй этаж.
Приходите и наслаждайтесь большим выбором мебели от лучших фабрик России по низким ценам!";text;;Магазин работает с 9 до 20 ч по будням и в субботу, а в воскресенье с 10 до 19 ч. Ждем вас!;text;otkrytie_novogo_salona_v_permi_zakamsk;500;;;;;;
454513;Открытие второго салона в Кунгуре;454513;Y;27.03.2018;;/upload/iblock/f4e/f4ea313e4aad9155c119bfecd87fb1be.jpg;"24 марта 2018 года открылся 25-й салон сети ""Формула Мебели"" в Пермском крае, по адресу г. Кунгур, ул. Просвещения, 1. 
Магазин занимает весь второй этаж исторического здания, вход в него находится с улицы Просвещения. 
Добро пожаловать! Наши продавцы-консультанты сделают всё, чтобы покупка мебели для Вас была приятной и практичной!";text;; ;text;otkrytie_vtorogo_salona_v_kungure;500;;;;;;
454520;"Конкурс стихов ""Весеннее настроение с Формула Мебели""";454520;N;30.03.2018;;/upload/iblock/1a8/1a8929b4bc838fdc7b0ed146041cb4b7.jpeg;Участвуйте в конкурсе с 1 апреля по 27 мая 2018г. и выигрывайте комплект из двух подушек Askona Glow!;text;;"<div class=""action__flex"">
    <div class=""action__flex-left"">
    <!--форма обратной связи-->
    </div>
    <div class=""action__flex-right"">

        <h3>Для участия нужно:</h3>

        <ul>
            <li>Совершить покупку в любом салоне ""Формула Мебели"" в период с 1 апреля по 27 мая</li>
            <li>Сочинить стих на тему ""Весеннее настроение с Формула Мебели""</li>
            <li>Заполнить заявку на участие с Вашим именем, номером договора, полученного при покупке мебели и текстом вашего стиха, отправить на конкурс</li>
            <li>До 28 мая будут выбраны 5 самых оригинальных стихов. Путем голосования в нашей группе Вконтакте vk.com/formulamebeli из них будет определен победитель. Итоги конкурса 31 мая!</li>
        </ul>

        <img src=""/images/priz.jpg"" alt=""выигрывайте комплект из двух подушек Askona Glow"">

    </div>
</div>

<style>
    .action__flex {
        display: flex;
        flex-direction: row;
    }
    .action__flex-left {
        width:20%;
    }
</style>";html;konkurs_stikhov_vesennee_nastroenie_s_formula_mebeli;500;;;;;;
456026;"Акция ""РЕАЛЬНЫЕ скидки!""";456026;Y;01.04.2018;;/upload/iblock/c17/c17027e58b598de181ffbdb6a826a66a.jpg;В апреле к нам приходит настоящая весна, а с ней новая акция от Формула Мебели - РЕАЛЬНЫЕ скидки!;text;;"Это не шутка. Комод со скидкой 35% теперь всего за 1 290 руб.! 

Остальные товары по акции можно посмотреть на сайте или уточнить у продавцов-консультантов в любом магазине ФМ.
Акция действует с 1 апреля по 31 мая 2018 г.";text;aktsiya_realnye_skidki_;500;;;;;;
456848;Открытие нового салона в г. Усолье;456848;Y;16.04.2018;;/upload/iblock/815/8156c97d2570963742f35d74133df3f7.jpg;"В субботу, 14 апреля, состоялось долгожданное открытие нового салона ""Формула Мебели"" в г. Усолье! 

Новый магазин - уже 26-й в сети ""Формула Мебели"", а Усолье - 15-й город в Пермском крае, где присутствуют салоны. Мы рады расти и развиваться для вас! ";text;;"Адрес: Леонова, 19, телефон магазина: 8-902-800-27-09. 

Ждём Вас! Менеджеры с удовольствием помогут вам с выбором и покупкой мебели. Напоминаем, что мы стремимся сделать цены на качественную мебель от ведущих российских фабрик доступными каждому ;)";text;otkrytie_novogo_salona_v_g_usole;500;;;;;;
460218;ЛЕТНЯЯ РАСПРОДАЖА;460218;Y;01.06.2018;;/upload/iblock/619/619fa010860b3b2768ef1d15c8b92f0d.jpg;Наступило время низких цен, время покупать! Сегодня начинается ЛЕТНЯЯ РАСПРОДАЖА!;text;;"Диван Элегия 2 на пружинном блоке - всего за 7 990 рублей, Гостиная ""Евро-2"" за 3 490 рублей, Кухонный уголок ""Юлия"" - всего 4 500 рублей! 
Посмотреть эти и другие товары по акции можно на нашем сайте.
Ждем вас в салонах и в интернет-магазине!";text;letnyaya_rasprodazha;500;;;;;;
461728;Новый салон в Перми на Трамвайной, 33 (Парковый);461728;Y;02.06.2018;;/upload/iblock/7a2/7a2cc24d7e2ebf1e368ecbd6797ad0f8.jpg;"Рады вам сообщить, что открылся новый салон ""Формула Мебели"" в Перми, в микрорайоне Парковый.
Адрес: торговый комплекс ""Парковый"" на Трамвайной, 33, павильон №5, 2 этаж.";text;;"В магазине вас ждут большой выбор мебели, низкие цены, и профессиональные консультации по подбору мебели от квалифицированных менеджеров. 
Рассрочка и бесплатная доставка (от 5000 руб.) действуют, как и в других магазинах.

Часы работы салона: ПН-ПТ 10:00 - 20:00, СБ-ВС 10:00 - 19:00
Также вы можете позвонить в этот магазин по телефону 8-951-93-84-684.

Добро пожаловать!


";text;novyy_salon_v_permi_na_tramvaynoy_33_parkovyy;500;;;;;;
461850;Новый адрес магазина в Красновишерске;461850;Y;06.07.2018;;/upload/iblock/945/9451f3d417140f5626a38894f2dd2592.jpg;"Магазин ""Формула Мебели"" в г. Красновишерске переехал, теперь салон находится рядом с автостанцией, на ул. Гагарина, 44а.";text;;"Ждем вас в новом салоне, приходите за мебелью по низким ценам к нам! 
Вход слева от автовокзала, в том же здании.

Телефон в г. Красновишерск не изменился: 8-912-580-75-23";text;novyy_adres_magazina_v_krasnovisherske;500;;;;;;
461851;Скоро открытие магазина в ТЦ Гудвин (Пермь);461851;Y;06.07.2018;;/upload/iblock/b95/b958bfa904343270b8c2c6d7d7e1ea84.jpg;"Спешим сообщить, что скоро ""Формула Мебели"" будет в ТЦ Гудвин! (г. Пермь, Уральская 63)
Уже сейчас действует часть выставки, работает касса, а значит, можно оплатить рассрочку или приобрести мебель. Позвонить в салон в Гудвине можно по телефону: 8-902-800-25-97
Когда будет полноценное открытие, мы обязательно об этом напишем. Оперативные новости, акции, розыгрыши мебели, общение - в нашей группе Вконтакте  https://vk.com/formulamebeli, присоединяйтесь!";text;; ;text;skoro_otkrytie_magazina_v_tts_gudvin;500;;;;;;
464195;"Акция ""Наши Лучшие цены""";464195;Y;01.08.2018;;/upload/iblock/da7/da7b0c5852e17c00025e725e00d49648.jpg;"Сегодня начинается новая акция в ""Формула Мебели""!

Весь август и сентябрь мы дарим вам низкие цены, успевайте купить больше мебели и подарков себе и близким!
Мы снизили цены на многие товары, в том числе на детскую мебель, письменные столы, стулья, кровати, уголки, диваны, модульные детские.

";text;;"Кроме того, на шкафы, гостиные, прихожие, кухни также действуют скидки и спец-цены. На матрасы Askona и спальню ""Сакура"" скидки продлены!

Цены смотрите на нашем сайте или в каталогах Формула Мебели. Ждем вас!";text;aktsiya_nashi_luchshie_tseny;500;;;;;;
464196;Фитнес браслет при покупке матраса Askona серии Fitness;464196;Y;01.09.2018;;/upload/iblock/fb9/fb97bc49ea8335cec7f1444de5bfa52f.jpg;"У нас есть замечательная новость!
С сегодняшнего дня каждый покупатель получает в подарок фитнес браслет при покупке матраса Askona серии Fitness любого размера.

Акция действует во всех салонах Формула Мебели, и распространяется в том числе и на покупку в рассрочку. Это действительно повод купить матрас Askona - фабрики №1 в России, а вместе с ним здоровый и приятный сон!";text;;"Приглашаем Вас в гости - в наших магазинах есть зоны подбора матрасов, где можно прилечь и всем телом почувствовать этот комфорт, а также выбрать наиболее подходящую для Вас модель, в чем с удовольствием помогут наши продавцы-консультанты. 

Срок акции ограничен, успевайте! Ждём Вас!";text;fitnes_braslet_pri_pokupke_matrasa_askona_serii_fitness;500;;;;;;
464201;Новый салон в г. Чусовом, ТЦ Долина Роз;464201;Y;07.09.2018;;/upload/iblock/24e/24e99402847c49b90281229fd140ead7.jpg;"Новый,  28-й магазин ""Формула Мебели"" уже работает! 
Это второй салон в г. Чусовой, находится по адресу Заводская, 5, в ТЦ Долина Роз. 

Часы работы магазина: ПН - ПТ: с 10-00 до 17-45 в будни , СБ - ВС: с 10-00 до 16-45.
Телефон 8-902-800-13-28.

";text;;"8 сентября (в СБ) состоится розыгрыш мебели среди покупателей нового магазина в 15:00. Призы отличные и их много - призовой фонд включает 5 столов ""Школьник"", 5 стульев и 5 полочек! 

Чтобы принять участие, нужно просто совершить покупку на сумму от 1000 рублей в салоне ""Формула Мебели"" г. Чусовой, Заводская, 5, ТЦ Долина Роз. Розыгрыш состоится в этом же салоне 8 сентября. 



Мы ждем Вас, обязательно приходите за мебелью по низким ценам и получите возможность выиграть призы!";text;novyy_salon_v_g_chusovom_tts_dolina_roz;500;;;;;;
464202;Новый адрес салона в г. Александровск;464202;Y;07.09.2018;;/upload/iblock/6f3/6f3bc2ebddcf54eaac9dc1da77b07419.jpg;"Дорогие жители г. Александровск, салон ""Формула Мебели"" переехал. 

Теперь адрес магазина такой: г. Александровск, ул. Ленина, 6, 2 этаж, (над магазином Монетка) часы работы остались те же: с 10 до 19 часов.

";text;;Телефон салона: 8-952-65-000-24. Приходите, ждем вас в новом салоне!;text;novyy_adres_salona_v_g_aleksandrovsk;500;;;;;;
