<svg xmlns="http://www.w3.org/2000/svg" width="15" height="12" viewBox="0 0 15 12">
  <defs>
    <style>
      .cls-1 {
        fill: #FFF;
        fill-rule: evenodd;
      }
    </style>
  </defs>
  <path id="catalog_menu.svg" class="cls-1" d="M1,0H14a1,1,0,1,1,0,2H1A1,1,0,1,1,1,0ZM1,5H14a1,1,0,0,1,1,1h0a1,1,0,0,1-1,1H1A1,1,0,0,1,0,6H0A1,1,0,0,1,1,5Zm0,5H14a1,1,0,0,1,1,1h0a1,1,0,0,1-1,1H1a1,1,0,0,1-1-1H0A1,1,0,0,1,1,10Z"/>
</svg>
