<?xml version="1.0" encoding="UTF-16"?>
<!DOCTYPE svg PUBLIC "-//W3C//DTD SVG 1.1//EN" "http://www.w3.org/Graphics/SVG/1.1/DTD/svg11.dtd">
<!-- Creator: CorelDRAW 2017 -->
<svg xmlns="http://www.w3.org/2000/svg" xml:space="preserve" width="80px" height="80px" version="1.1" style="shape-rendering:geometricPrecision; text-rendering:geometricPrecision; image-rendering:optimizeQuality; fill-rule:evenodd; clip-rule:evenodd"
viewBox="0 0 80 80"
 xmlns:xlink="http://www.w3.org/1999/xlink">
 <defs>
  <style type="text/css">
   <![CDATA[
    .fil2 {fill:#F43169}
    .fil0 {fill:gray;fill-rule:nonzero}
    .fil1 {fill:#F43169;fill-rule:nonzero}
   ]]>
  </style>
 </defs>
 <g id="Слой_x0020_1">
  <metadata id="CorelCorpID_0Corel-Layer"/>
  <path class="fil0" d="M14.13 73.08c0.03,0.29 -0.19,0.55 -0.49,0.57 -0.29,0.03 -0.55,-0.19 -0.57,-0.48 -0.64,-7.28 -1.26,-13.34 -1.77,-18.43 -1.29,-12.72 -1.98,-19.47 -0.7,-21.67 2.83,-4.87 4.82,-5.16 9.1,-5.78 2.19,-0.32 5.01,-0.73 8.91,-1.95 0.94,-0.3 1.54,-1.35 1.91,-2.7 0.55,-2.03 0.56,-4.68 0.4,-6.59 -0.02,-0.29 0.2,-0.55 0.49,-0.57 0.29,-0.03 0.55,0.19 0.57,0.48 0.17,2 0.16,4.79 -0.44,6.96 -0.45,1.68 -1.27,3.01 -2.61,3.43 -3.98,1.25 -6.85,1.67 -9.08,1.99 -3.93,0.57 -5.76,0.84 -8.33,5.26 -1.1,1.91 -0.43,8.54 0.83,21.04 0.53,5.18 1.15,11.35 1.78,18.44z"/>
  <path class="fil0" d="M66.93 73.17c-0.02,0.29 -0.28,0.51 -0.57,0.48 -0.3,-0.02 -0.52,-0.28 -0.49,-0.57 0.63,-7.09 1.25,-13.26 1.78,-18.44 1.26,-12.5 1.93,-19.13 0.83,-21.04 -2.57,-4.42 -4.4,-4.69 -8.33,-5.26 -2.23,-0.32 -5.1,-0.74 -9.08,-1.99 -1.34,-0.42 -2.16,-1.75 -2.61,-3.43 -0.6,-2.17 -0.61,-4.96 -0.44,-6.96 0.02,-0.29 0.28,-0.51 0.57,-0.48 0.29,0.02 0.51,0.28 0.49,0.57 -0.16,1.91 -0.15,4.56 0.4,6.59 0.37,1.35 0.97,2.4 1.91,2.7 3.9,1.22 6.72,1.63 8.91,1.95 4.28,0.62 6.27,0.91 9.1,5.78 1.28,2.2 0.59,8.95 -0.7,21.67 -0.51,5.09 -1.13,11.15 -1.77,18.43z"/>
  <path class="fil0" d="M20.06 41.68c-0.09,-0.28 0.05,-0.58 0.33,-0.68 0.28,-0.1 0.58,0.05 0.68,0.33 2.7,7.58 4.37,14 5,19.26 0.64,5.32 0.22,9.48 -1.27,12.47 -0.13,0.26 -0.45,0.37 -0.71,0.23 -0.27,-0.13 -0.38,-0.45 -0.24,-0.71 1.39,-2.8 1.78,-6.75 1.16,-11.87 -0.62,-5.18 -2.27,-11.52 -4.95,-19.03z"/>
  <path class="fil0" d="M58.93 41.33c0.1,-0.28 0.4,-0.43 0.68,-0.33 0.28,0.1 0.42,0.4 0.33,0.68 -2.68,7.51 -4.33,13.85 -4.95,19.03 -0.62,5.12 -0.23,9.07 1.16,11.87 0.14,0.26 0.03,0.58 -0.24,0.71 -0.26,0.14 -0.58,0.03 -0.71,-0.23 -1.49,-2.99 -1.91,-7.15 -1.27,-12.47 0.63,-5.26 2.3,-11.68 5,-19.26z"/>
  <path class="fil1" d="M40 26.56c2.1,0 4,0.85 5.38,2.23l0 0c1.37,1.38 2.23,3.28 2.23,5.38 0,2.09 -0.86,4 -2.23,5.37l-0.01 0.01c-1.37,1.37 -3.27,2.22 -5.37,2.22 -2.1,0 -4,-0.85 -5.38,-2.23l-0.03 -0.03c-1.36,-1.37 -2.2,-3.26 -2.2,-5.34 0,-2.1 0.86,-4 2.23,-5.38 1.38,-1.38 3.28,-2.23 5.38,-2.23zm4.62 2.98c-1.18,-1.18 -2.81,-1.91 -4.62,-1.91 -1.81,0 -3.44,0.73 -4.62,1.91 -1.19,1.18 -1.92,2.82 -1.92,4.63 0,1.79 0.72,3.41 1.89,4.59l0.03 0.03c1.18,1.18 2.81,1.92 4.62,1.92 1.81,0 3.44,-0.73 4.62,-1.92 1.19,-1.18 1.92,-2.82 1.92,-4.62 0,-1.81 -0.73,-3.45 -1.92,-4.63z"/>
  <path class="fil1" d="M40 42.55c2.1,0 4,0.85 5.38,2.23l0 0c1.37,1.38 2.23,3.28 2.23,5.37 0,2.1 -0.86,4 -2.23,5.38l-0.01 0c-1.37,1.38 -3.27,2.23 -5.37,2.23 -2.1,0 -4,-0.85 -5.38,-2.23l-0.03 -0.03c-1.36,-1.37 -2.2,-3.26 -2.2,-5.35 0,-2.09 0.86,-4 2.23,-5.37 1.38,-1.38 3.28,-2.23 5.38,-2.23zm4.62 2.98c-1.18,-1.18 -2.81,-1.91 -4.62,-1.91 -1.81,0 -3.44,0.73 -4.62,1.91 -1.19,1.18 -1.92,2.82 -1.92,4.62 0,1.8 0.72,3.42 1.89,4.6l0.03 0.03c1.18,1.18 2.81,1.91 4.62,1.91 1.81,0 3.44,-0.73 4.62,-1.91 1.19,-1.18 1.92,-2.82 1.92,-4.63 0,-1.8 -0.73,-3.44 -1.92,-4.62z"/>
  <circle class="fil2" cx="40" cy="50.15" r="3.58"/>
  <circle class="fil2" cx="40" cy="34.17" r="3.58"/>
  <path class="fil1" d="M40 58.54c2.1,0 4,0.85 5.38,2.22l0 0.01c1.37,1.37 2.23,3.28 2.23,5.37 0,2.1 -0.86,4 -2.23,5.38l-0.01 0c-1.37,1.38 -3.27,2.23 -5.37,2.23 -2.1,0 -4,-0.85 -5.38,-2.23l-0.03 -0.03c-1.36,-1.38 -2.2,-3.26 -2.2,-5.35 0,-2.1 0.86,-4 2.23,-5.37 1.38,-1.38 3.28,-2.23 5.38,-2.23zm4.62 2.98c-1.18,-1.19 -2.81,-1.92 -4.62,-1.92 -1.81,0 -3.44,0.74 -4.62,1.92 -1.19,1.18 -1.92,2.81 -1.92,4.62 0,1.8 0.72,3.42 1.89,4.6l0.03 0.03c1.18,1.18 2.81,1.91 4.62,1.91 1.81,0 3.44,-0.73 4.62,-1.91 1.19,-1.19 1.92,-2.82 1.92,-4.63 0,-1.81 -0.73,-3.44 -1.92,-4.62z"/>
  <circle class="fil2" cx="40" cy="66.14" r="3.58"/>
 </g>
</svg>
