<?xml version="1.0" encoding="UTF-16"?>
<!DOCTYPE svg PUBLIC "-//W3C//DTD SVG 1.1//EN" "http://www.w3.org/Graphics/SVG/1.1/DTD/svg11.dtd">
<!-- Creator: CorelDRAW 2017 -->
<svg xmlns="http://www.w3.org/2000/svg" xml:space="preserve" width="80px" height="80px" version="1.1" style="shape-rendering:geometricPrecision; text-rendering:geometricPrecision; image-rendering:optimizeQuality; fill-rule:evenodd; clip-rule:evenodd"
viewBox="0 0 80 80"
 xmlns:xlink="http://www.w3.org/1999/xlink">
 <defs>
  <style type="text/css">
   <![CDATA[
    .fil0 {fill:gray;fill-rule:nonzero}
   ]]>
  </style>
 </defs>
 <g id="Слой_x0020_1">
  <metadata id="CorelCorpID_0Corel-Layer"/>
  <path class="fil0" d="M28.93 13.43l15.01 -4.83c1.57,-0.51 3.2,-0.33 4.56,0.37 1.36,0.7 2.46,1.92 2.97,3.49l4.83 15.01c0.5,1.57 0.32,3.19 -0.38,4.56 -0.7,1.36 -1.92,2.46 -3.48,2.97l-15.01 4.83c-1.57,0.5 -3.2,0.32 -4.56,-0.38 -1.37,-0.7 -2.47,-1.92 -2.97,-3.48l-4.83 -15.02c-0.51,-1.56 -0.32,-3.19 0.37,-4.55 0.71,-1.37 1.92,-2.47 3.49,-2.97zm15.34 -3.82l-15.02 4.83c-1.28,0.42 -2.28,1.32 -2.86,2.44 -0.57,1.12 -0.72,2.46 -0.31,3.75l4.84 15.01c0.41,1.29 1.31,2.29 2.43,2.86 1.12,0.58 2.46,0.73 3.75,0.31l15.01 -4.83c1.29,-0.41 2.29,-1.32 2.87,-2.44 0.57,-1.12 0.72,-2.46 0.3,-3.74l-4.83 -15.02c-0.41,-1.28 -1.32,-2.28 -2.43,-2.86 -1.13,-0.57 -2.47,-0.72 -3.75,-0.31z"/>
  <path class="fil0" d="M18.93 39.28l15.77 0c1.65,0 3.14,0.67 4.23,1.76 1.08,1.08 1.75,2.58 1.75,4.22l0 15.77c0,1.65 -0.67,3.14 -1.75,4.23 -1.09,1.08 -2.59,1.75 -4.23,1.75l-15.77 0c-1.65,0 -3.14,-0.67 -4.22,-1.75 -1.09,-1.08 -1.76,-2.58 -1.76,-4.23l0 -15.77c0,-1.64 0.67,-3.14 1.75,-4.22 1.09,-1.08 2.58,-1.76 4.23,-1.76zm15.77 1.07l-15.77 0c-1.35,0 -2.58,0.55 -3.47,1.44 -0.89,0.89 -1.45,2.12 -1.45,3.47l0 15.77c0,1.36 0.56,2.58 1.45,3.47 0.89,0.9 2.12,1.45 3.47,1.45l15.77 0c1.35,0 2.58,-0.55 3.47,-1.44 0.89,-0.89 1.44,-2.12 1.44,-3.48l0 -15.77c0,-1.35 -0.55,-2.58 -1.44,-3.47 -0.89,-0.89 -2.12,-1.44 -3.47,-1.44z"/>
  <path class="fil0" d="M45.59 39.28l15.78 0c1.64,0 3.14,0.67 4.22,1.76 1.09,1.08 1.76,2.58 1.76,4.22l0 15.77c0,1.65 -0.67,3.14 -1.76,4.23 -1.08,1.08 -2.58,1.75 -4.22,1.75l-15.78 0c-1.64,0 -3.13,-0.67 -4.22,-1.75 -1.08,-1.08 -1.76,-2.58 -1.76,-4.23l0 -15.77c0,-1.64 0.68,-3.14 1.76,-4.22 1.09,-1.08 2.58,-1.76 4.22,-1.76zm15.78 1.07l-15.78 0c-1.35,0 -2.58,0.55 -3.47,1.44 -0.89,0.89 -1.44,2.12 -1.44,3.47l0 15.77c0,1.36 0.55,2.58 1.44,3.47 0.89,0.9 2.12,1.45 3.47,1.45l15.78 0c1.35,0 2.58,-0.55 3.47,-1.44 0.89,-0.89 1.44,-2.12 1.44,-3.48l0 -15.77c0,-1.35 -0.55,-2.58 -1.44,-3.47 -0.89,-0.89 -2.12,-1.44 -3.47,-1.44z"/>
  <path class="fil0" d="M38.65 32.09l-2.8 0.96c-0.28,0.09 -0.59,-0.06 -0.68,-0.34 -0.02,-0.07 -0.03,-0.14 -0.03,-0.21l0.9 -13.9c0.02,-0.23 0.17,-0.41 0.37,-0.48l2.48 -0.84c0.22,-0.08 0.45,0 0.59,0.17l9.21 10.43c0.19,0.22 0.17,0.55 -0.05,0.75 -0.05,0.05 -0.11,0.08 -0.18,0.1l-2.97 1.02c-0.23,0.08 -0.47,-0.01 -0.61,-0.19l-1.62 -1.91 -4.14 1.42 -0.11 2.54c-0.01,0.22 -0.16,0.41 -0.36,0.48zm-2.39 -0.31l1.7 -0.58 0.12 -2.52c0,-0.22 0.14,-0.43 0.36,-0.5l4.82 -1.65c0.2,-0.07 0.43,-0.01 0.58,0.16l1.64 1.94 1.88 -0.65 -8.46 -9.58 -1.82 0.62 -0.82 12.76zm4.32 -7.25l-1.16 -1.36 -0.09 1.79 1.25 -0.43zm-1.22 -3.07l2.54 2.98c0.04,0.05 0.08,0.1 0.1,0.17 0.09,0.28 -0.06,0.58 -0.33,0.68l-2.74 0.93c-0.06,0.02 -0.12,0.03 -0.19,0.03 -0.3,-0.02 -0.52,-0.27 -0.51,-0.56l0.2 -3.9c0,-0.15 0.06,-0.29 0.18,-0.4 0.23,-0.19 0.57,-0.16 0.75,0.07z"/>
  <path class="fil0" d="M21.99 59.54l0 -12.87c0,-0.3 0.24,-0.54 0.53,-0.54l7.76 0c0.29,0 0.53,0.24 0.53,0.54l0 2.75c0,0.3 -0.24,0.54 -0.53,0.54l-4.28 0 0 0.9 0.06 -0.01c0.26,-0.02 0.56,-0.03 0.87,-0.03 0.69,0 1.31,0.1 1.88,0.31 0.57,0.2 1.07,0.51 1.5,0.92 0.45,0.42 0.78,0.9 1,1.46 0.22,0.54 0.33,1.15 0.33,1.82 0,0.75 -0.12,1.42 -0.37,2.01 -0.25,0.61 -0.63,1.13 -1.13,1.56 -0.49,0.43 -1.08,0.75 -1.77,0.96l-0.02 0c-0.67,0.2 -1.41,0.3 -2.24,0.3 -0.28,0 -0.63,0 -1.05,-0.01 -0.37,-0.01 -0.75,-0.02 -1.13,-0.04 -0.43,-0.04 -0.98,-0.03 -1.42,-0.04 -0.29,-0.01 -0.52,-0.24 -0.52,-0.53zm1.06 -12.34l0 11.83c0.31,0.01 0.62,0.01 0.93,0.02 0.39,0.01 0.76,0.03 1.11,0.04 0.3,0 0.64,0.01 1.02,0.01 0.73,0 1.37,-0.09 1.93,-0.25l0.02 -0.01c0.54,-0.17 1.01,-0.42 1.39,-0.74 0.37,-0.33 0.65,-0.71 0.84,-1.16 0.19,-0.46 0.29,-1 0.29,-1.61 0,-0.54 -0.09,-1.01 -0.25,-1.43 -0.17,-0.41 -0.42,-0.76 -0.75,-1.07 -0.32,-0.32 -0.7,-0.55 -1.13,-0.7 -0.44,-0.16 -0.95,-0.24 -1.52,-0.24 -0.3,0 -0.56,0.01 -0.79,0.02 -0.21,0.02 -0.39,0.04 -0.53,0.07 -0.05,0.01 -0.1,0.02 -0.15,0.02 -0.29,0 -0.53,-0.24 -0.53,-0.53l0 -2.05c0,-0.29 0.24,-0.53 0.53,-0.53l4.29 0 0 -1.69 -6.7 0zm3.64 7.45c-0.19,0 -0.37,0 -0.54,0.02l-0.15 0.01 0 1.62 0.22 0.02c0.17,0.01 0.28,0.02 0.35,0.02 0.4,0 0.69,-0.07 0.86,-0.21 0.13,-0.11 0.2,-0.31 0.2,-0.58 0,-0.29 -0.07,-0.52 -0.22,-0.68 -0.07,-0.07 -0.15,-0.12 -0.25,-0.16 -0.13,-0.04 -0.28,-0.06 -0.47,-0.06zm-0.63 -1.04c0.23,-0.02 0.44,-0.03 0.63,-0.03 0.31,0 0.59,0.04 0.83,0.13 0.26,0.1 0.49,0.24 0.67,0.44 0.34,0.36 0.51,0.83 0.51,1.4 0,0.61 -0.2,1.07 -0.59,1.4 -0.37,0.3 -0.88,0.46 -1.54,0.46 -0.09,0 -0.23,-0.01 -0.43,-0.03l-0.7 -0.07c-0.28,-0.01 -0.51,-0.24 -0.51,-0.53l0 -2.56c0,-0.25 0.19,-0.48 0.45,-0.52 0.22,-0.04 0.45,-0.07 0.68,-0.09z"/>
  <path class="fil0" d="M48.65 59.55l0 -12.8c0,-0.3 0.24,-0.53 0.54,-0.53l0.01 0c0.69,-0.04 1.37,-0.07 2.02,-0.09 0.7,-0.02 1.33,-0.03 1.87,-0.03 0.75,0 1.42,0.08 2,0.24 0.61,0.16 1.13,0.4 1.55,0.73 0.43,0.34 0.76,0.75 0.98,1.21 0.21,0.46 0.32,0.98 0.32,1.56 0,1.15 -0.36,2.08 -1.07,2.8l0.15 0.11c0.26,0.21 0.49,0.47 0.69,0.76 0.2,0.31 0.35,0.64 0.45,1.01 0.1,0.36 0.15,0.75 0.15,1.17 0,1.46 -0.53,2.59 -1.57,3.38 -0.5,0.38 -1.08,0.66 -1.73,0.85 -0.64,0.18 -1.35,0.27 -2.13,0.27 -0.81,0 -1.55,-0.01 -2.21,-0.03 -0.64,-0.02 -1.15,-0.05 -1.53,-0.08 -0.28,-0.03 -0.48,-0.26 -0.49,-0.53zm1.07 -12.3l0 11.81c0.28,0.02 0.61,0.03 0.98,0.04 0.56,0.02 1.29,0.03 2.18,0.03 0.68,0 1.29,-0.08 1.83,-0.24 0.53,-0.15 0.99,-0.37 1.38,-0.67 0.77,-0.58 1.15,-1.42 1.15,-2.53 0,-0.33 -0.03,-0.63 -0.11,-0.9 -0.06,-0.25 -0.17,-0.48 -0.3,-0.68 -0.14,-0.21 -0.3,-0.38 -0.48,-0.53 -0.17,-0.14 -0.36,-0.24 -0.57,-0.33 -0.22,-0.06 -0.38,-0.27 -0.38,-0.51l0 -0.03c0.01,-0.18 0.09,-0.34 0.24,-0.45 0.82,-0.54 1.23,-1.35 1.23,-2.42 0,-0.42 -0.07,-0.79 -0.22,-1.11 -0.15,-0.31 -0.37,-0.59 -0.66,-0.82 -0.31,-0.24 -0.7,-0.42 -1.17,-0.54 -0.49,-0.13 -1.07,-0.2 -1.73,-0.2 -0.63,0 -1.24,0.01 -1.84,0.03 -0.48,0.01 -0.99,0.03 -1.53,0.05zm3.55 7.66l-0.61 0 0 1.44c0.14,0.01 0.29,0.02 0.46,0.02 0.79,0 1.18,-0.28 1.18,-0.83 0,-0.21 -0.06,-0.36 -0.17,-0.44 -0.17,-0.13 -0.45,-0.19 -0.86,-0.19zm-1.14 -1.06l1.14 0c0.64,0 1.13,0.13 1.49,0.39 0.4,0.3 0.61,0.74 0.61,1.3 0,1.26 -0.75,1.89 -2.25,1.89 -0.21,0 -0.41,-0.01 -0.6,-0.03 -0.17,-0.02 -0.33,-0.05 -0.48,-0.08 -0.25,-0.05 -0.44,-0.27 -0.44,-0.53l0 -2.41c0,-0.29 0.24,-0.53 0.53,-0.53zm0.92 -3.92c-0.1,0 -0.22,0 -0.35,0.02l-0.04 0 0 1.32 0.44 0c0.32,0 0.54,-0.06 0.66,-0.17 0.12,-0.1 0.17,-0.28 0.17,-0.55 0,-0.1 -0.01,-0.18 -0.04,-0.24 -0.04,-0.07 -0.09,-0.13 -0.15,-0.18 -0.09,-0.07 -0.18,-0.12 -0.29,-0.15 -0.12,-0.03 -0.25,-0.05 -0.4,-0.05zm-0.44 -1.05c0.17,-0.01 0.32,-0.02 0.44,-0.02 0.25,0 0.49,0.04 0.71,0.11 0.23,0.07 0.44,0.17 0.63,0.32 0.2,0.15 0.35,0.34 0.46,0.56 0.1,0.21 0.15,0.45 0.15,0.7 0,0.58 -0.17,1.02 -0.51,1.33 -0.33,0.31 -0.79,0.46 -1.39,0.46l-0.97 0c-0.29,0 -0.53,-0.24 -0.53,-0.53l0 -2.34c0,-0.27 0.19,-0.5 0.47,-0.53 0.19,-0.02 0.37,-0.04 0.54,-0.06z"/>
 </g>
</svg>
