<?xml version="1.0" encoding="UTF-16"?>
<!DOCTYPE svg PUBLIC "-//W3C//DTD SVG 1.1//EN" "http://www.w3.org/Graphics/SVG/1.1/DTD/svg11.dtd">
<!-- Creator: CorelDRAW 2017 -->
<svg xmlns="http://www.w3.org/2000/svg" xml:space="preserve" width="80px" height="80px" version="1.1" style="shape-rendering:geometricPrecision; text-rendering:geometricPrecision; image-rendering:optimizeQuality; fill-rule:evenodd; clip-rule:evenodd"
viewBox="0 0 80 80"
 xmlns:xlink="http://www.w3.org/1999/xlink">
 <defs>
  <style type="text/css">
   <![CDATA[
    .fil0 {fill:gray;fill-rule:nonzero}
   ]]>
  </style>
 </defs>
 <g id="Слой_x0020_1">
  <metadata id="CorelCorpID_0Corel-Layer"/>
  <path class="fil0" d="M12.37 44.32c-1.45,1.35 -3.01,2.82 -4.71,4.42 2.34,2.68 7.39,5.26 13.28,7.24 0.32,0.5 0.66,0.98 1.01,1.45 -0.2,-0.06 -0.4,-0.13 -0.59,-0.19 -6.67,-2.16 -12.44,-5.11 -14.85,-8.22l-0.29 -0.38 0.35 -0.33c1.94,-1.84 3.69,-3.48 5.28,-4.96 0.15,0.34 0.32,0.67 0.52,0.97zm47.1 11.61c4.78,-1.9 9.26,-4.41 12.79,-7.27 -1.65,-1.57 -3.2,-3 -4.65,-4.32 0.23,-0.28 0.43,-0.58 0.6,-0.89 1.62,1.47 3.35,3.07 5.22,4.86l0.44 0.41 -0.46 0.38c-3.93,3.29 -9.07,6.14 -14.54,8.2l-0.48 0.18c0.38,-0.5 0.73,-1.02 1.08,-1.55zm-21.59 -42.23l0.2 -0.3 0.44 -0.69 0.45 0.68 0.19 0.28c-0.43,0.01 -0.86,0.02 -1.28,0.03z"/>
  <path class="fil0" d="M17.35 47.75c-1.76,-0.09 -3.35,-0.84 -4.52,-2 -1.24,-1.24 -2,-2.96 -2,-4.85 0,-0.91 0.17,-1.78 0.5,-2.58 -0.01,0.81 0,1.63 0.03,2.47 0.18,0.03 0.36,0.06 0.53,0.09l0 0.02c0,1.6 0.65,3.04 1.7,4.09 0.92,0.92 2.14,1.53 3.51,1.67 0.07,0.36 0.16,0.73 0.25,1.09zm46.57 -14.13c1.4,0.25 2.65,0.93 3.62,1.9 1.24,1.24 2.01,2.95 2.01,4.84 0,1.89 -0.77,3.61 -2.01,4.85l0 0c-1.14,1.14 -2.68,1.88 -4.38,2 0.08,-0.37 0.16,-0.73 0.23,-1.1 1.33,-0.16 2.51,-0.76 3.4,-1.65 1.05,-1.05 1.69,-2.5 1.69,-4.1 0,-1.59 -0.64,-3.04 -1.69,-4.09 -0.77,-0.77 -1.75,-1.32 -2.85,-1.56 -0.01,-0.37 -0.02,-0.73 -0.02,-1.09z"/>
  <path class="fil0" d="M64.46 34.26c0.03,1.52 0.03,3.08 0.03,4.68l0 1.39c0,7.5 -2.71,14.29 -7.1,19.21 -4.4,4.94 -10.48,7.99 -17.2,7.99 -1.48,0 -2.92,-0.14 -4.33,-0.43 0.34,-0.28 0.68,-0.58 1.03,-0.9 1.08,0.18 2.18,0.27 3.3,0.27 6.4,0 12.2,-2.92 16.41,-7.63 4.21,-4.74 6.82,-11.28 6.82,-18.51l0.01 -1.39c0,-1.79 0,-3.54 -0.05,-5.22 0.35,0.19 0.71,0.37 1.08,0.54zm-47.49 6.99c0.2,6.54 2.53,12.46 6.24,16.92 -0.13,0.4 -0.24,0.82 -0.34,1.24 -4.14,-4.7 -6.76,-11.09 -6.97,-18.16 0.36,0.01 0.71,0.01 1.07,0z"/>
  <path class="fil0" d="M54.71 20.24c-0.98,0.86 -2.02,1.79 -3.11,2.78 -9.79,8.83 -23.76,21.41 -40.34,18.29 -0.26,-0.05 -0.43,-0.28 -0.43,-0.53 -0.33,-9.27 1.45,-16.33 4.59,-21.5 2.32,-3.81 5.38,-6.59 8.88,-8.45 3.49,-1.85 7.43,-2.79 11.5,-2.93 7.05,-0.25 14.54,1.87 20.94,5.72 0.39,0.01 0.79,0.05 1.2,0.13 2.35,0.45 4.76,2.05 6.57,4.72 1.77,2.63 2.98,6.3 2.98,10.94 0,1.77 -0.18,3.68 -0.57,5.74 -0.05,0.29 -0.33,0.48 -0.62,0.43l-0.08 -0.03c-4.17,-1.48 -7.23,-3.82 -9.14,-6.62 -1.78,-2.6 -2.57,-5.6 -2.37,-8.69zm-3.82 1.99c1.47,-1.33 2.85,-2.57 4.15,-3.68 0.12,-0.1 0.27,-0.15 0.43,-0.12 0.29,0.04 0.49,0.32 0.44,0.61 -0.52,3.29 0.16,6.53 2.05,9.29 1.7,2.48 4.38,4.59 8.03,6 0.3,-1.75 0.44,-3.39 0.44,-4.92 0,-4.4 -1.14,-7.87 -2.81,-10.34 -1.64,-2.43 -3.79,-3.88 -5.88,-4.27 -0.38,-0.08 -0.77,-0.11 -1.15,-0.11 -0.1,-0.01 -0.19,-0.03 -0.28,-0.08 -6.24,-3.8 -13.58,-5.9 -20.47,-5.65 -3.92,0.14 -7.69,1.04 -11.04,2.82 -3.34,1.77 -6.26,4.41 -8.48,8.05 -2.99,4.92 -4.7,11.66 -4.44,20.51 15.88,2.73 29.46,-9.51 39.01,-18.11z"/>
  <path class="fil0" d="M40.19 56.84c0.66,0 1.34,0.03 1.99,0.06 0.52,0.02 1.01,0.04 1.51,0.04 1.38,0 2.29,-0.2 2.29,-1.33 0,-1.06 -0.62,-2.04 -1.63,-2.75 -1.06,-0.76 -2.53,-1.23 -4.16,-1.23 -1.63,0 -3.11,0.47 -4.16,1.23 -0.36,0.25 -0.66,0.53 -0.91,0.83 -0.45,0.01 -0.91,0.09 -1.41,0.26 0.35,-0.75 0.94,-1.42 1.7,-1.96 1.23,-0.88 2.92,-1.42 4.78,-1.42 1.86,0 3.55,0.54 4.78,1.42 1.28,0.91 2.08,2.2 2.08,3.62 0,2.02 -1.34,2.4 -3.36,2.4 -0.44,0 -0.98,-0.03 -1.55,-0.05 -0.49,-0.02 -1.01,-0.04 -1.58,-0.05 -0.19,-0.36 -0.42,-0.71 -0.69,-1.07l0.32 0z"/>
  <path class="fil0" d="M37.64 64.79c2.1,-1.98 2.94,-3.52 2.93,-4.87 -0.01,-1.33 -0.85,-2.56 -2.1,-3.89 -1.22,-1.3 -2.38,-1.94 -3.72,-1.78 -1.41,0.17 -3.06,1.18 -5.2,3.19 -0.57,0.53 -1.03,0.44 -1.46,-0.02 -0.28,-0.29 -0.49,-0.78 -0.72,-1.31 -0.16,-0.36 -0.33,-0.75 -0.52,-1.07 -0.28,-0.45 -0.63,-0.75 -1.15,-0.43 -0.81,0.49 -1.69,2.43 -2.24,4.64 -0.53,2.08 -0.74,4.36 -0.33,5.86 0.2,0.72 0.74,1.49 1.36,2.18 0.92,1.01 2.01,1.82 2.56,2.1 1.58,0.79 3.11,0.67 4.77,-0.12 1.74,-0.84 3.62,-2.42 5.82,-4.48zm3.99 -4.87c0.01,1.65 -0.92,3.44 -3.27,5.65 -2.26,2.12 -4.22,3.76 -6.09,4.66 -1.95,0.94 -3.78,1.07 -5.69,0.11 -0.64,-0.32 -1.87,-1.23 -2.87,-2.34 -0.73,-0.79 -1.35,-1.7 -1.6,-2.6 -0.47,-1.7 -0.25,-4.17 0.31,-6.41 0.62,-2.45 1.68,-4.65 2.72,-5.29 1.26,-0.76 2.04,-0.17 2.62,0.79 0.23,0.37 0.41,0.8 0.59,1.2 0.17,0.4 0.33,0.78 0.48,0.96 2.31,-2.16 4.16,-3.27 5.8,-3.46 1.72,-0.2 3.16,0.56 4.61,2.11 1.42,1.51 2.38,2.95 2.39,4.62z"/>
  <path class="fil0" d="M36.46 45.12c-0.25,-1.02 -0.78,-1.94 -1.5,-2.66 -1.03,-1.04 -2.45,-1.68 -4.03,-1.68 -1.57,0 -2.99,0.64 -4.02,1.68 -0.72,0.72 -1.25,1.64 -1.5,2.66l1.1 0c0.23,-0.73 0.63,-1.39 1.15,-1.91 0.84,-0.85 2,-1.37 3.27,-1.37 1.28,0 2.44,0.52 3.28,1.37 0.52,0.52 0.92,1.18 1.15,1.91l1.1 0z"/>
  <path class="fil0" d="M54.97 45.12c-0.25,-1.02 -0.78,-1.94 -1.5,-2.66 -1.03,-1.04 -2.46,-1.68 -4.03,-1.68 -1.57,0 -2.99,0.64 -4.02,1.68 -0.72,0.72 -1.25,1.64 -1.5,2.66l1.1 0c0.23,-0.73 0.62,-1.39 1.15,-1.91 0.84,-0.85 1.99,-1.37 3.27,-1.37 1.28,0 2.44,0.52 3.27,1.37 0.53,0.52 0.93,1.18 1.15,1.91l1.11 0z"/>
 </g>
</svg>
