<?xml version="1.0" encoding="UTF-16"?>
<!DOCTYPE svg PUBLIC "-//W3C//DTD SVG 1.1//EN" "http://www.w3.org/Graphics/SVG/1.1/DTD/svg11.dtd">
<!-- Creator: CorelDRAW 2017 -->
<svg xmlns="http://www.w3.org/2000/svg" xml:space="preserve" width="80px" height="80px" version="1.1" style="shape-rendering:geometricPrecision; text-rendering:geometricPrecision; image-rendering:optimizeQuality; fill-rule:evenodd; clip-rule:evenodd"
viewBox="0 0 80 80"
 xmlns:xlink="http://www.w3.org/1999/xlink">
 <defs>
  <style type="text/css">
   <![CDATA[
    .fil0 {fill:gray;fill-rule:nonzero}
   ]]>
  </style>
 </defs>
 <g id="Слой_x0020_1">
  <metadata id="CorelCorpID_0Corel-Layer"/>
  <path class="fil0" d="M63.73 33.22c1.4,0.26 2.66,0.94 3.62,1.9 1.24,1.24 2.01,2.96 2.01,4.85 0,1.89 -0.76,3.61 -2.01,4.85l0 0c-1.14,1.14 -2.68,1.88 -4.38,1.99 0.08,-0.36 0.16,-0.72 0.24,-1.09 1.32,-0.16 2.5,-0.76 3.39,-1.65 1.05,-1.05 1.7,-2.5 1.7,-4.1 0,-1.6 -0.65,-3.04 -1.7,-4.09 -0.77,-0.77 -1.75,-1.32 -2.85,-1.56 0,-0.37 -0.01,-0.73 -0.02,-1.1z"/>
  <path class="fil0" d="M17.16 47.35c-1.76,-0.08 -3.35,-0.83 -4.51,-1.99 -1.25,-1.25 -2.01,-2.96 -2.01,-4.85 0,-1.9 0.76,-3.61 2.01,-4.85l0.01 -0.01c0.96,-0.96 2.21,-1.64 3.6,-1.89 -0.01,0.36 -0.01,0.73 -0.02,1.09 -1.1,0.24 -2.07,0.8 -2.84,1.56 -1.05,1.05 -1.7,2.5 -1.7,4.1 0,1.59 0.65,3.04 1.7,4.09 0.92,0.92 2.14,1.53 3.51,1.67 0.08,0.36 0.16,0.73 0.25,1.08z"/>
  <path class="fil0" d="M64.22 32.15c0.09,2.04 0.08,4.19 0.08,6.4l0 1.39c0,7.5 -2.71,14.29 -7.1,19.21 -4.4,4.94 -10.48,7.99 -17.2,7.99 -6.72,0 -12.8,-3.05 -17.2,-7.99 -4.39,-4.92 -7.1,-11.71 -7.1,-19.21l0 -1.39c0,-2.22 -0.01,-4.37 0.08,-6.42 0.14,0.53 0.3,1.08 0.49,1.64 0.17,-0.06 0.35,-0.13 0.53,-0.2 -0.04,1.61 -0.04,3.27 -0.04,4.98l0 1.39c0,7.23 2.61,13.77 6.83,18.5 4.2,4.72 10.01,7.63 16.41,7.63 6.4,0 12.21,-2.91 16.41,-7.63 4.22,-4.73 6.83,-11.27 6.83,-18.5l0 -1.39c0,-1.71 0,-3.37 -0.04,-4.98 0.18,0.07 0.36,0.14 0.54,0.2 0.18,-0.56 0.34,-1.1 0.48,-1.62z"/>
  <path class="fil0" d="M40 53.5c0.72,0 1.35,-0.02 1.95,-0.05 0.57,-0.02 1.11,-0.05 1.55,-0.05 2.02,0 3.36,0.38 3.36,2.4 0,1.42 -0.8,2.7 -2.08,3.62 -1.23,0.88 -2.92,1.42 -4.78,1.42 -1.86,0 -3.55,-0.54 -4.78,-1.42 -1.28,-0.92 -2.08,-2.2 -2.08,-3.62 0,-2.02 1.34,-2.4 3.37,-2.4 0.43,0 0.97,0.03 1.54,0.05 0.6,0.03 1.23,0.05 1.95,0.05zm1.99 1.01c-0.64,0.03 -1.33,0.06 -1.99,0.06 -0.66,0 -1.34,-0.03 -1.99,-0.06 -0.52,-0.02 -1.01,-0.04 -1.5,-0.04 -1.39,0 -2.3,0.21 -2.3,1.33 0,1.06 0.62,2.04 1.63,2.75 1.05,0.76 2.53,1.23 4.16,1.23 1.63,0 3.11,-0.47 4.16,-1.23 1.01,-0.71 1.63,-1.69 1.63,-2.75 0,-1.13 -0.91,-1.33 -2.29,-1.33 -0.5,0 -0.99,0.02 -1.51,0.04z"/>
  <path class="fil0" d="M36.27 45.45c-0.25,-1.02 -0.78,-1.94 -1.5,-2.66 -1.03,-1.04 -2.45,-1.68 -4.02,-1.68 -1.58,0 -3,0.64 -4.03,1.68 -0.72,0.72 -1.25,1.64 -1.5,2.66l1.1 0c0.23,-0.73 0.63,-1.38 1.15,-1.91 0.84,-0.84 2,-1.37 3.28,-1.37 1.28,0 2.43,0.53 3.27,1.37 0.52,0.53 0.92,1.18 1.15,1.91l1.1 0z"/>
  <path class="fil0" d="M54.78 45.45c-0.25,-1.02 -0.78,-1.94 -1.5,-2.66 -1.03,-1.04 -2.45,-1.68 -4.03,-1.68 -1.57,0 -2.99,0.64 -4.02,1.68 -0.72,0.72 -1.25,1.64 -1.5,2.66l1.1 0c0.23,-0.73 0.63,-1.38 1.15,-1.91 0.84,-0.84 1.99,-1.37 3.27,-1.37 1.28,0 2.44,0.53 3.28,1.37 0.52,0.53 0.92,1.18 1.15,1.91l1.1 0z"/>
  <path class="fil0" d="M21.99 16.76c-1.33,0.69 -2.59,1.63 -3.64,2.83 -1.62,1.86 -2.72,4.37 -2.72,7.68 0,1.72 0.3,3.65 0.97,5.81 2.93,-1.1 6.14,-2.82 8.42,-5.58 0.68,-0.83 1.29,-1.76 1.77,-2.8 0.28,0.24 0.57,0.46 0.86,0.68 -0.51,1.03 -1.12,1.95 -1.81,2.79 -2.57,3.11 -6.2,4.96 -9.4,6.1l-0.01 0c-0.28,0.09 -0.58,-0.06 -0.67,-0.33 -0.83,-2.5 -1.19,-4.71 -1.19,-6.67 0,-3.6 1.21,-6.34 2.97,-8.37 1.21,-1.39 2.68,-2.45 4.21,-3.21 0.07,0.36 0.15,0.72 0.24,1.07zm37.01 -0.67c1.26,0.72 2.45,1.64 3.46,2.81 1.77,2.03 2.98,4.77 2.98,8.37 0,1.96 -0.36,4.17 -1.2,6.67 -0.09,0.27 -0.39,0.42 -0.67,0.33l-0.01 0c-3.2,-1.14 -6.82,-2.99 -9.39,-6.1 -0.7,-0.84 -1.31,-1.77 -1.82,-2.81 0.32,-0.17 0.63,-0.34 0.93,-0.52 0.48,0.98 1.06,1.86 1.71,2.66 2.28,2.76 5.49,4.48 8.42,5.58 0.67,-2.16 0.96,-4.09 0.96,-5.81 0,-3.31 -1.1,-5.82 -2.71,-7.68 -0.5,-0.57 -1.04,-1.07 -1.62,-1.53 0.08,-0.16 0.16,-0.33 0.23,-0.5 -0.43,-0.51 -0.85,-1 -1.27,-1.47z"/>
  <path class="fil0" d="M22.03 7.82c-0.79,7.57 1.13,12.7 4.47,15.91 2.19,2.1 5.01,3.39 8.08,3.99 3.09,0.61 6.45,0.53 9.68,-0.09 6.88,-1.33 13.21,-5.12 15.39,-9.97 -11.18,-13.32 -16.95,-11.28 -22.82,-9.2 -4.26,1.51 -8.56,3.03 -14.8,-0.64zm3.73 16.67c-3.69,-3.54 -5.76,-9.22 -4.69,-17.62 0.01,-0.08 0.04,-0.15 0.08,-0.22 0.16,-0.25 0.49,-0.32 0.74,-0.17 6.18,3.95 10.41,2.45 14.59,0.97 6.24,-2.21 12.39,-4.39 24.18,9.75 0.13,0.15 0.18,0.37 0.1,0.57 -2.19,5.33 -8.96,9.48 -16.3,10.9 -3.36,0.65 -6.85,0.74 -10.09,0.1 -3.26,-0.65 -6.26,-2.02 -8.61,-4.28z"/>
 </g>
</svg>
