<?xml version="1.0" encoding="UTF-16"?>
<!DOCTYPE svg PUBLIC "-//W3C//DTD SVG 1.1//EN" "http://www.w3.org/Graphics/SVG/1.1/DTD/svg11.dtd">
<!-- Creator: CorelDRAW 2017 -->
<svg xmlns="http://www.w3.org/2000/svg" xml:space="preserve" width="80px" height="80px" version="1.1" style="shape-rendering:geometricPrecision; text-rendering:geometricPrecision; image-rendering:optimizeQuality; fill-rule:evenodd; clip-rule:evenodd"
viewBox="0 0 80 80"
 xmlns:xlink="http://www.w3.org/1999/xlink">
 <defs>
  <style type="text/css">
   <![CDATA[
    .fil0 {fill:gray;fill-rule:nonzero}
   ]]>
  </style>
 </defs>
 <g id="Слой_x0020_1">
  <metadata id="CorelCorpID_0Corel-Layer"/>
  <path class="fil0" d="M13.82 34.41c0.03,-0.16 0.14,-0.28 0.26,-0.35 -1.32,-4.35 -2.39,-9.13 -3.2,-14.35 -0.03,-0.12 -0.01,-0.25 0.06,-0.37 0.69,-1.23 1.37,-1.78 2.14,-1.91 0.76,-0.13 1.52,0.16 2.43,0.63 0.16,0.08 0.27,0.24 0.29,0.42 0.52,5.74 1.45,10.99 2.82,15.74 3.02,2.32 5.61,5.42 8.26,8.58 5.41,6.47 11.09,13.26 21.07,13.99 0.08,0 0.15,0.03 0.22,0.06 0.83,-0.58 1.59,-1.18 2.35,-1.79 1.53,-1.23 3.09,-2.49 5.41,-3.65l0.03 -0.02c1.07,-0.54 2.16,-0.52 3.16,-0.13 1.02,0.39 1.94,1.17 2.68,2.16 0.72,0.97 1.27,2.15 1.56,3.36 0.44,1.8 0.29,3.69 -0.72,5.13 -4.38,6.17 -10.37,8.74 -16.5,9.25 -3.06,0.25 -6.16,-0.02 -9.1,-0.61 -0.03,0 -0.07,-0.01 -0.1,-0.02 -5.37,-1.1 -10.22,-3.27 -13.4,-5.32 -4.23,-2.73 -7.68,-6.23 -9.56,-11.17 -1.87,-4.92 -2.19,-11.25 -0.16,-19.63zm50.98 1.71c-0.14,-0.26 -0.04,-0.59 0.22,-0.72 0.26,-0.14 0.58,-0.04 0.72,0.22 0.78,1.47 1.02,2.8 0.81,4.3 -0.13,0.91 -0.42,1.87 -0.85,2.96 0.52,-0.58 0.98,-1.22 1.36,-1.91 1.05,-1.9 1.43,-4.22 0.39,-6.91 -0.21,-0.55 -0.81,-0.99 -1.47,-1.23 -0.39,-0.14 -0.8,-0.22 -1.16,-0.21 -0.33,0.01 -0.62,0.08 -0.81,0.22 -0.14,0.1 -0.23,0.26 -0.26,0.47 -0.07,0.66 -0.11,1.19 -0.16,1.69 -0.14,1.61 -0.27,3.02 -0.74,4.99 -0.09,0.4 -0.21,0.79 -0.35,1.2l0 0.01 -0.01 0.01 0 0c-0.36,1.05 -0.85,2.1 -1.44,3.12 -0.56,0.96 -1.21,1.9 -1.91,2.77 0.45,-0.14 0.89,-0.31 1.32,-0.49 0.98,-0.42 2.17,-1.08 3.31,-1.96 0.01,-0.04 0.03,-0.09 0.05,-0.13 0.9,-1.93 1.49,-3.42 1.68,-4.74 0.17,-1.27 -0.03,-2.41 -0.7,-3.66zm-3.67 5.69c-9.52,2.44 -12.6,0.69 -18.14,-2.47l-0.09 -0.04c-0.16,0.15 -0.31,0.36 -0.39,0.59 -0.08,0.22 -0.1,0.45 -0.02,0.67 2.7,1.61 5.23,2.59 7.64,3.08 2.46,0.51 4.79,0.53 7.07,0.23 0.29,-0.04 0.56,0.17 0.6,0.46 0.03,0.29 -0.17,0.56 -0.46,0.6 -2.38,0.31 -4.82,0.29 -7.38,-0.24 1.79,1.64 3.46,2.47 5.03,2.75 0.82,0.16 1.63,0.16 2.41,0.06 1.02,-1.12 1.96,-2.38 2.73,-3.7 0.38,-0.66 0.71,-1.33 1,-1.99zm-13.17 2.38c-1.97,-0.6 -4.01,-1.5 -6.15,-2.79 -0.09,-0.05 -0.17,-0.13 -0.22,-0.23 -0.28,-0.55 -0.26,-1.12 -0.09,-1.63 0.21,-0.59 0.65,-1.09 1.11,-1.34 0.16,-0.09 0.35,-0.09 0.52,0l0.38 0.22c2.74,1.56 4.84,2.75 7.49,3.23 0.05,-0.05 0.11,-0.1 0.18,-0.13 2.48,-1.15 3.93,-1.44 5.09,-1.68 1.67,-0.33 2.72,-0.54 5.84,-3.43 0.08,-0.08 0.19,-0.13 0.29,-0.14 0.05,-0.45 0.09,-0.9 0.13,-1.36 0.05,-0.57 0.11,-1.16 0.17,-1.72 0.05,-0.53 0.31,-0.93 0.68,-1.21 0.38,-0.28 0.88,-0.41 1.42,-0.42 0.5,-0.01 1.04,0.08 1.55,0.27 0.92,0.34 1.76,0.99 2.09,1.85 1.18,3.02 0.74,5.65 -0.45,7.8 -1.68,3.06 -4.89,5.16 -7.11,6.11 -0.95,0.4 -1.94,0.73 -2.96,0.91l0 0c-0.17,0.18 -0.45,0.21 -0.66,0.09 -0.8,0.08 -1.62,0.05 -2.46,-0.1 -2.14,-0.39 -4.41,-1.64 -6.84,-4.3zm5.1 -2.32c2.22,0.07 4.9,-0.3 8.52,-1.28 0.09,-0.29 0.17,-0.57 0.24,-0.85 0.17,-0.72 0.3,-1.37 0.39,-1.99 -2.86,2.56 -4,2.79 -5.73,3.13 -0.86,0.18 -1.88,0.38 -3.42,0.99zm-26 -23.56c-0.03,-0.29 0.19,-0.55 0.49,-0.57 0.29,-0.03 0.55,0.19 0.57,0.48 0.39,4.76 1.73,7.88 3.61,9.96 1.41,1.57 3.14,2.56 5,3.25 2.11,-0.33 3.92,-0.96 5.58,-1.81 1.7,-0.87 3.25,-1.98 4.81,-3.23 1.54,-1.23 2.34,-2.56 3.14,-3.89 0.65,-1.09 1.31,-2.18 2.36,-3.27 0.47,-0.49 1.03,-0.69 1.61,-0.68 0.62,0.02 1.25,0.28 1.82,0.7 0.54,0.41 1.04,0.96 1.44,1.58 0.69,1.11 1.06,2.47 0.72,3.63 -1.24,4.24 -3.9,6.7 -6.99,8.02 -4.4,1.87 -9.66,1.42 -12.89,0.57 -0.61,-0.17 -1.22,-0.35 -1.81,-0.56l-0.05 -0.02c-2.05,-0.74 -3.96,-1.83 -5.53,-3.57 -2.02,-2.25 -3.47,-5.57 -3.88,-10.59zm11.78 13.77c3.08,0.77 7.93,1.14 11.97,-0.58 2.82,-1.21 5.24,-3.45 6.38,-7.33 0.25,-0.85 -0.05,-1.89 -0.6,-2.77 -0.33,-0.52 -0.74,-0.97 -1.17,-1.29 -0.41,-0.3 -0.83,-0.49 -1.21,-0.5 -0.3,0 -0.58,0.1 -0.82,0.36 -0.98,1 -1.6,2.04 -2.22,3.07 -0.85,1.42 -1.7,2.83 -3.39,4.19 -1.6,1.27 -3.21,2.42 -4.99,3.33 -1.22,0.63 -2.52,1.15 -3.95,1.52zm-9.35 -13.99c-0.29,-0.07 -0.47,-0.36 -0.4,-0.64 0.07,-0.29 0.36,-0.47 0.64,-0.4 3.93,0.92 6.35,2.41 8.58,3.78 3.01,1.85 5.66,3.48 11.36,3 0.29,-0.02 0.55,0.2 0.57,0.49 0.03,0.29 -0.19,0.55 -0.49,0.57 -6.04,0.51 -8.83,-1.2 -12,-3.15 -2.15,-1.33 -4.5,-2.77 -8.26,-3.65zm16.51 8.75c0.27,0.1 0.4,0.41 0.3,0.69 -0.11,0.27 -0.42,0.4 -0.69,0.3 -7.34,-2.9 -11.61,-5.26 -14.52,-8.01 -2.87,-2.71 -4.4,-5.75 -6.21,-9.99 -0.26,-0.03 -0.46,-0.03 -0.58,0.04 -0.14,0.08 -0.26,0.29 -0.35,0.69 2.71,5.4 4.93,8.56 7.3,10.77 2.38,2.23 4.96,3.55 8.39,5.26 0.26,0.13 0.37,0.45 0.24,0.71 -0.13,0.27 -0.45,0.37 -0.72,0.24 -3.5,-1.75 -6.14,-3.1 -8.64,-5.43 -2.48,-2.33 -4.79,-5.61 -7.59,-11.22 -0.06,-0.11 -0.08,-0.23 -0.06,-0.35 0.16,-0.88 0.46,-1.35 0.91,-1.6 0.44,-0.24 0.94,-0.22 1.55,-0.13 0.18,0.03 0.34,0.15 0.41,0.32 1.81,4.27 3.29,7.28 6.08,9.91 2.81,2.65 6.98,4.96 14.18,7.8zm8.2 -3.86c0.05,-0.29 0.32,-0.49 0.61,-0.44 0.29,0.04 0.49,0.32 0.44,0.61 -0.36,2.22 -1.2,4.11 -2.88,5.82 -1.65,1.68 -4.1,3.16 -7.71,4.59 -0.27,0.11 -0.58,-0.03 -0.69,-0.3 -0.1,-0.27 0.03,-0.58 0.3,-0.69 3.46,-1.37 5.8,-2.77 7.34,-4.34 1.51,-1.54 2.26,-3.25 2.59,-5.25zm3.18 34.62c0.13,-0.26 0.46,-0.36 0.71,-0.22 0.26,0.14 0.36,0.46 0.22,0.72 -1.79,3.36 -4.13,6.13 -7.51,8.24 -2.66,1.66 -5.96,2.9 -10.15,3.68 1.78,0.19 3.6,0.23 5.41,0.08 5.83,-0.48 11.54,-2.93 15.71,-8.81 0.82,-1.16 0.93,-2.74 0.56,-4.26 -0.26,-1.07 -0.75,-2.11 -1.39,-2.97 -0.62,-0.84 -1.39,-1.49 -2.2,-1.81 -0.73,-0.29 -1.52,-0.3 -2.3,0.09l-0.04 0.02c-2.2,1.11 -3.72,2.33 -5.22,3.53 -2.04,1.64 -4.03,3.23 -7.6,4.48 -3.63,1.26 -7.57,2.2 -11.68,2.59 -3.27,0.31 -6.65,0.27 -10.05,-0.25 0.72,0.56 1.48,1.1 2.26,1.6 3.09,1.99 7.79,4.1 13.01,5.17 5.69,-0.67 9.91,-2.04 13.12,-4.05 3.2,-2 5.42,-4.64 7.14,-7.83zm-42.77 -21.89c-1.7,7.63 -1.36,13.42 0.37,17.95 1.22,3.21 3.15,5.78 5.53,7.93 0.12,-0.1 0.27,-0.14 0.43,-0.11 3.67,0.67 7.32,0.76 10.86,0.43 0.57,-0.06 1.13,-0.12 1.69,-0.2 -5.83,-3.41 -10.56,-8.48 -14.27,-15.21 -1.77,-3.22 -3.31,-6.81 -4.61,-10.79zm20.56 25.75c2.81,-0.48 5.51,-1.21 8.06,-2.1 1.4,-0.48 2.54,-1.03 3.55,-1.62 -9.75,-1.15 -15.36,-7.85 -20.72,-14.25 -2.24,-2.69 -4.45,-5.32 -6.88,-7.43 0.42,1.29 0.87,2.55 1.36,3.77 2.45,6.11 5.8,11.24 10.16,15.38 0.21,0.21 0.22,0.54 0.02,0.76 -0.2,0.21 -0.54,0.22 -0.75,0.01 -4.47,-4.25 -7.91,-9.5 -10.42,-15.75 -0.7,-1.76 -1.33,-3.6 -1.89,-5.51 -0.01,-0.02 -0.02,-0.04 -0.02,-0.07 -1.39,-4.77 -2.34,-10.03 -2.87,-15.77 -0.61,-0.3 -1.1,-0.47 -1.51,-0.4 -0.42,0.07 -0.83,0.43 -1.3,1.22 1.66,10.58 4.37,19.34 8.19,26.29 3.83,6.95 8.78,12.08 14.91,15.38 0.04,0.03 0.08,0.05 0.11,0.09z"/>
 </g>
</svg>
