<?xml version="1.0" encoding="UTF-16"?>
<!DOCTYPE svg PUBLIC "-//W3C//DTD SVG 1.1//EN" "http://www.w3.org/Graphics/SVG/1.1/DTD/svg11.dtd">
<!-- Creator: CorelDRAW 2017 -->
<svg xmlns="http://www.w3.org/2000/svg" xml:space="preserve" width="80px" height="80px" version="1.1" style="shape-rendering:geometricPrecision; text-rendering:geometricPrecision; image-rendering:optimizeQuality; fill-rule:evenodd; clip-rule:evenodd"
viewBox="0 0 80 80"
 xmlns:xlink="http://www.w3.org/1999/xlink">
 <defs>
  <style type="text/css">
   <![CDATA[
    .fil0 {fill:gray;fill-rule:nonzero}
   ]]>
  </style>
 </defs>
 <g id="Слой_x0020_1">
  <metadata id="CorelCorpID_0Corel-Layer"/>
  <path class="fil0" d="M24.69 49.69c-0.14,0.25 -0.46,0.35 -0.72,0.21 -0.26,-0.15 -0.35,-0.47 -0.21,-0.73 1.7,-3.08 3.96,-5.06 6.96,-5.94 2.94,-0.87 6.56,-0.67 11.03,0.59 1.53,-0.02 2.99,-0.05 4.35,-0.08 4.43,-0.09 7.86,-0.16 9.99,0.37 1.29,0.33 1.93,1.2 2.23,2.19 0.27,0.9 0.23,1.89 0.15,2.56 -0.16,1.39 -1.45,2.35 -3.84,2.82 -2.16,0.42 -5.29,0.48 -9.38,0.15 -0.29,-0.03 -0.51,-0.28 -0.49,-0.58 0.02,-0.29 0.28,-0.51 0.57,-0.49 4,0.33 7.03,0.28 9.09,-0.13 1.89,-0.37 2.89,-1.01 3,-1.9 0.06,-0.56 0.1,-1.39 -0.12,-2.13 -0.2,-0.66 -0.63,-1.24 -1.47,-1.45 -2,-0.5 -5.36,-0.43 -9.71,-0.34 -1.37,0.02 -2.84,0.06 -4.41,0.07 -0.06,0.01 -0.12,0 -0.18,-0.02 -4.3,-1.21 -7.75,-1.42 -10.51,-0.61 -2.71,0.79 -4.77,2.6 -6.33,5.44z"/>
  <path class="fil0" d="M58.29 47.2c-0.2,0.22 -0.54,0.23 -0.75,0.02 -0.21,-0.2 -0.22,-0.53 -0.02,-0.75l0.81 -0.87c6.66,-7.06 9.73,-10.31 12.92,-7.5 1.85,1.63 1.66,3.84 -0.39,6.98 -1.9,2.92 -5.47,6.72 -10.56,11.7 -2.35,2.3 -8.27,2.28 -16.23,2.24 -2.01,-0.01 -4.16,-0.02 -6.41,0.01 -0.33,0.12 -0.72,0.33 -1.18,0.64 -0.51,0.34 -1.11,0.8 -1.78,1.37 -0.22,0.18 -0.56,0.16 -0.75,-0.07 -0.19,-0.22 -0.16,-0.56 0.07,-0.75 0.69,-0.59 1.32,-1.07 1.87,-1.43 0.57,-0.39 1.07,-0.65 1.5,-0.8 0.05,-0.01 0.1,-0.02 0.16,-0.03 2.29,-0.02 4.48,-0.01 6.52,0 7.72,0.03 13.45,0.06 15.49,-1.94 5.03,-4.93 8.56,-8.67 10.41,-11.52 1.71,-2.61 1.94,-4.39 0.57,-5.6 -2.42,-2.13 -5.26,0.88 -11.43,7.43l-0.82 0.87z"/>
  <path class="fil0" d="M14.43 56.46l13.32 14.26 6.7 -6c0.41,-0.39 0.62,-0.91 0.64,-1.44 0.01,-0.54 -0.17,-1.08 -0.55,-1.51l-10.44 -11.18c-0.39,-0.42 -0.93,-0.64 -1.46,-0.66 -0.56,-0.02 -1.12,0.17 -1.56,0.57l-6.65 5.96zm12.89 15.37l-14.41 -15.44 7.46 -6.69c0.65,-0.58 1.48,-0.86 2.3,-0.84 0.81,0.03 1.61,0.37 2.21,1.01 2.62,2.8 8.52,8.44 10.45,11.19 0.57,0.63 0.84,1.45 0.82,2.25 -0.03,0.8 -0.35,1.6 -0.98,2.19 -0.38,0.16 -6.5,5.82 -7.49,6.71l-0.36 -0.38z"/>
  <path class="fil0" d="M49.41 20.38c2.8,0 5.34,1.14 7.18,2.98 1.84,1.84 2.97,4.38 2.97,7.18 0,2.81 -1.13,5.34 -2.97,7.18 -1.84,1.84 -4.38,2.98 -7.18,2.98 -2.81,0 -5.35,-1.14 -7.18,-2.98 -1.84,-1.84 -2.98,-4.37 -2.98,-7.18 0,-2.8 1.14,-5.34 2.98,-7.18 1.83,-1.84 4.37,-2.98 7.18,-2.98zm6.42 3.73c-1.64,-1.64 -3.91,-2.66 -6.42,-2.66 -2.51,0 -4.79,1.02 -6.43,2.66 -1.65,1.65 -2.66,3.92 -2.66,6.43 0,2.51 1.01,4.78 2.66,6.43 1.64,1.64 3.92,2.66 6.43,2.66 2.51,0 4.78,-1.02 6.42,-2.66 1.65,-1.65 2.67,-3.92 2.67,-6.43 0,-2.51 -1.02,-4.78 -2.67,-6.43z"/>
  <path class="fil0" d="M51.17 28.3c-0.74,-0.92 -1.49,-1.15 -2.09,-1.01 -0.36,0.08 -0.68,0.31 -0.88,0.6 -0.19,0.27 -0.28,0.6 -0.22,0.91 0.09,0.43 0.5,0.85 1.37,1.08 1.32,0.34 2.12,0.87 2.55,1.45 0.29,0.41 0.41,0.84 0.38,1.27 -0.03,0.41 -0.2,0.8 -0.47,1.15 -0.46,0.59 -1.23,1.06 -2.1,1.23 -0.61,0.11 -1.35,-0.07 -1.96,-0.46 -0.57,-0.37 -1.05,-0.92 -1.2,-1.56l1.03 -0.25c0.09,0.36 0.38,0.68 0.74,0.91 0.39,0.25 0.84,0.38 1.19,0.31 0.62,-0.12 1.15,-0.43 1.46,-0.83 0.14,-0.18 0.23,-0.38 0.25,-0.58 0.01,-0.18 -0.04,-0.38 -0.18,-0.57 -0.29,-0.39 -0.9,-0.76 -1.96,-1.04 -1.33,-0.35 -1.98,-1.1 -2.14,-1.9 -0.12,-0.61 0.04,-1.23 0.39,-1.73 0.35,-0.5 0.88,-0.88 1.52,-1.03 0.95,-0.22 2.11,0.09 3.15,1.38l-0.83 0.67z"/>
  <polygon class="fil0" points="49.94,24.05 49.94,26.72 48.87,26.72 48.87,24.05 "/>
  <polygon class="fil0" points="49.94,34.36 49.94,37.03 48.87,37.03 48.87,34.36 "/>
  <path class="fil0" d="M37.17 7.66c1.96,0 3.74,0.8 5.02,2.08 1.29,1.29 2.08,3.06 2.08,5.02 0,1.96 -0.79,3.74 -2.08,5.02 -1.28,1.29 -3.06,2.08 -5.02,2.08 -1.96,0 -3.73,-0.79 -5.02,-2.08 -1.28,-1.28 -2.07,-3.06 -2.07,-5.02 0,-1.96 0.79,-3.73 2.07,-5.01 1.29,-1.29 3.06,-2.09 5.02,-2.09zm4.27 2.84c-1.09,-1.09 -2.6,-1.77 -4.27,-1.77 -1.66,0 -3.17,0.68 -4.26,1.77 -1.09,1.09 -1.77,2.6 -1.77,4.26 0,1.67 0.68,3.18 1.77,4.27 1.09,1.09 2.6,1.76 4.26,1.76 1.67,0 3.18,-0.67 4.27,-1.76 1.09,-1.09 1.77,-2.6 1.77,-4.27 0,-1.66 -0.68,-3.17 -1.77,-4.26z"/>
  <path class="fil0" d="M38.24 13.34c-0.45,-0.56 -0.9,-0.71 -1.25,-0.63 -0.21,0.05 -0.38,0.18 -0.5,0.34 -0.11,0.15 -0.16,0.33 -0.12,0.49 0.04,0.24 0.29,0.47 0.81,0.61 0.94,0.24 1.52,0.63 1.83,1.05 0.23,0.31 0.32,0.65 0.29,0.98 -0.02,0.31 -0.15,0.61 -0.35,0.88 -0.34,0.43 -0.9,0.77 -1.54,0.9 -0.46,0.08 -1.01,-0.05 -1.46,-0.34 -0.42,-0.27 -0.77,-0.68 -0.89,-1.17l1.03 -0.25c0.05,0.2 0.22,0.39 0.43,0.52 0.24,0.15 0.5,0.23 0.69,0.19 0.39,-0.07 0.71,-0.26 0.9,-0.5 0.07,-0.1 0.12,-0.21 0.13,-0.31 0.01,-0.09 -0.02,-0.18 -0.09,-0.27 -0.17,-0.24 -0.56,-0.48 -1.24,-0.65 -0.98,-0.26 -1.46,-0.82 -1.58,-1.43 -0.1,-0.46 0.02,-0.93 0.29,-1.31 0.26,-0.37 0.66,-0.66 1.13,-0.77 0.71,-0.16 1.57,0.06 2.32,1l-0.83 0.67z"/>
  <polygon class="fil0" points="37.71,10.34 37.71,12.16 36.64,12.16 36.64,10.34 "/>
  <polygon class="fil0" points="37.71,17.37 37.71,19.19 36.64,19.19 36.64,17.37 "/>
 </g>
</svg>
